<?xml version="1.0" encoding="utf-8"?>
<svg version="1.1" baseProfile="full"  width="2600" height="2600" viewBox="0 0 2600 2600"
		 xmlns="http://www.w3.org/2000/svg" xmlns:xlink="http://www.w3.org/1999/xlink" xmlns:ev="http://www.w3.org/2001/xml-events">
<desc></desc>
<rect width="2600" height="2600" fill="#ffffff" cx="0" cy="0" />
<defs>
<rect id="p" width="40" height="40" />
</defs>
<g fill="#330033">
<use x="80" y="80" xlink:href="#p" />
<use x="80" y="120" xlink:href="#p" />
<use x="80" y="160" xlink:href="#p" />
<use x="80" y="200" xlink:href="#p" />
<use x="80" y="240" xlink:href="#p" />
<use x="80" y="280" xlink:href="#p" />
<use x="80" y="320" xlink:href="#p" />
<use x="80" y="400" xlink:href="#p" />
<use x="80" y="440" xlink:href="#p" />
<use x="80" y="520" xlink:href="#p" />
<use x="80" y="560" xlink:href="#p" />
<use x="80" y="600" xlink:href="#p" />
<use x="80" y="640" xlink:href="#p" />
<use x="80" y="720" xlink:href="#p" />
<use x="80" y="760" xlink:href="#p" />
<use x="80" y="800" xlink:href="#p" />
<use x="80" y="840" xlink:href="#p" />
<use x="80" y="880" xlink:href="#p" />
<use x="80" y="920" xlink:href="#p" />
<use x="80" y="1000" xlink:href="#p" />
<use x="80" y="1040" xlink:href="#p" />
<use x="80" y="1120" xlink:href="#p" />
<use x="80" y="1200" xlink:href="#p" />
<use x="80" y="1280" xlink:href="#p" />
<use x="80" y="1360" xlink:href="#p" />
<use x="80" y="1400" xlink:href="#p" />
<use x="80" y="1440" xlink:href="#p" />
<use x="80" y="1480" xlink:href="#p" />
<use x="80" y="1520" xlink:href="#p" />
<use x="80" y="1560" xlink:href="#p" />
<use x="80" y="1640" xlink:href="#p" />
<use x="80" y="1720" xlink:href="#p" />
<use x="80" y="1840" xlink:href="#p" />
<use x="80" y="1880" xlink:href="#p" />
<use x="80" y="1920" xlink:href="#p" />
<use x="80" y="1960" xlink:href="#p" />
<use x="80" y="2040" xlink:href="#p" />
<use x="80" y="2120" xlink:href="#p" />
<use x="80" y="2160" xlink:href="#p" />
<use x="80" y="2240" xlink:href="#p" />
<use x="80" y="2280" xlink:href="#p" />
<use x="80" y="2320" xlink:href="#p" />
<use x="80" y="2360" xlink:href="#p" />
<use x="80" y="2400" xlink:href="#p" />
<use x="80" y="2440" xlink:href="#p" />
<use x="80" y="2480" xlink:href="#p" />
<use x="120" y="80" xlink:href="#p" />
<use x="120" y="320" xlink:href="#p" />
<use x="120" y="400" xlink:href="#p" />
<use x="120" y="760" xlink:href="#p" />
<use x="120" y="840" xlink:href="#p" />
<use x="120" y="880" xlink:href="#p" />
<use x="120" y="960" xlink:href="#p" />
<use x="120" y="1000" xlink:href="#p" />
<use x="120" y="1040" xlink:href="#p" />
<use x="120" y="1120" xlink:href="#p" />
<use x="120" y="1160" xlink:href="#p" />
<use x="120" y="1280" xlink:href="#p" />
<use x="120" y="1360" xlink:href="#p" />
<use x="120" y="1440" xlink:href="#p" />
<use x="120" y="1480" xlink:href="#p" />
<use x="120" y="1520" xlink:href="#p" />
<use x="120" y="1560" xlink:href="#p" />
<use x="120" y="1680" xlink:href="#p" />
<use x="120" y="1760" xlink:href="#p" />
<use x="120" y="1800" xlink:href="#p" />
<use x="120" y="1880" xlink:href="#p" />
<use x="120" y="1920" xlink:href="#p" />
<use x="120" y="2000" xlink:href="#p" />
<use x="120" y="2120" xlink:href="#p" />
<use x="120" y="2160" xlink:href="#p" />
<use x="120" y="2240" xlink:href="#p" />
<use x="120" y="2480" xlink:href="#p" />
<use x="160" y="80" xlink:href="#p" />
<use x="160" y="160" xlink:href="#p" />
<use x="160" y="200" xlink:href="#p" />
<use x="160" y="240" xlink:href="#p" />
<use x="160" y="320" xlink:href="#p" />
<use x="160" y="400" xlink:href="#p" />
<use x="160" y="440" xlink:href="#p" />
<use x="160" y="480" xlink:href="#p" />
<use x="160" y="680" xlink:href="#p" />
<use x="160" y="760" xlink:href="#p" />
<use x="160" y="800" xlink:href="#p" />
<use x="160" y="920" xlink:href="#p" />
<use x="160" y="960" xlink:href="#p" />
<use x="160" y="1000" xlink:href="#p" />
<use x="160" y="1040" xlink:href="#p" />
<use x="160" y="1160" xlink:href="#p" />
<use x="160" y="1240" xlink:href="#p" />
<use x="160" y="1280" xlink:href="#p" />
<use x="160" y="1320" xlink:href="#p" />
<use x="160" y="1360" xlink:href="#p" />
<use x="160" y="1440" xlink:href="#p" />
<use x="160" y="1480" xlink:href="#p" />
<use x="160" y="1520" xlink:href="#p" />
<use x="160" y="1600" xlink:href="#p" />
<use x="160" y="1680" xlink:href="#p" />
<use x="160" y="1760" xlink:href="#p" />
<use x="160" y="1840" xlink:href="#p" />
<use x="160" y="1880" xlink:href="#p" />
<use x="160" y="1920" xlink:href="#p" />
<use x="160" y="2080" xlink:href="#p" />
<use x="160" y="2120" xlink:href="#p" />
<use x="160" y="2160" xlink:href="#p" />
<use x="160" y="2240" xlink:href="#p" />
<use x="160" y="2320" xlink:href="#p" />
<use x="160" y="2360" xlink:href="#p" />
<use x="160" y="2400" xlink:href="#p" />
<use x="160" y="2480" xlink:href="#p" />
<use x="200" y="80" xlink:href="#p" />
<use x="200" y="160" xlink:href="#p" />
<use x="200" y="200" xlink:href="#p" />
<use x="200" y="240" xlink:href="#p" />
<use x="200" y="320" xlink:href="#p" />
<use x="200" y="400" xlink:href="#p" />
<use x="200" y="520" xlink:href="#p" />
<use x="200" y="560" xlink:href="#p" />
<use x="200" y="600" xlink:href="#p" />
<use x="200" y="640" xlink:href="#p" />
<use x="200" y="720" xlink:href="#p" />
<use x="200" y="760" xlink:href="#p" />
<use x="200" y="880" xlink:href="#p" />
<use x="200" y="920" xlink:href="#p" />
<use x="200" y="1000" xlink:href="#p" />
<use x="200" y="1040" xlink:href="#p" />
<use x="200" y="1240" xlink:href="#p" />
<use x="200" y="1280" xlink:href="#p" />
<use x="200" y="1320" xlink:href="#p" />
<use x="200" y="1360" xlink:href="#p" />
<use x="200" y="1440" xlink:href="#p" />
<use x="200" y="1600" xlink:href="#p" />
<use x="200" y="1640" xlink:href="#p" />
<use x="200" y="1680" xlink:href="#p" />
<use x="200" y="1760" xlink:href="#p" />
<use x="200" y="1800" xlink:href="#p" />
<use x="200" y="1840" xlink:href="#p" />
<use x="200" y="1920" xlink:href="#p" />
<use x="200" y="1960" xlink:href="#p" />
<use x="200" y="2000" xlink:href="#p" />
<use x="200" y="2080" xlink:href="#p" />
<use x="200" y="2160" xlink:href="#p" />
<use x="200" y="2240" xlink:href="#p" />
<use x="200" y="2320" xlink:href="#p" />
<use x="200" y="2360" xlink:href="#p" />
<use x="200" y="2400" xlink:href="#p" />
<use x="200" y="2480" xlink:href="#p" />
<use x="240" y="80" xlink:href="#p" />
<use x="240" y="160" xlink:href="#p" />
<use x="240" y="200" xlink:href="#p" />
<use x="240" y="240" xlink:href="#p" />
<use x="240" y="320" xlink:href="#p" />
<use x="240" y="440" xlink:href="#p" />
<use x="240" y="480" xlink:href="#p" />
<use x="240" y="560" xlink:href="#p" />
<use x="240" y="600" xlink:href="#p" />
<use x="240" y="680" xlink:href="#p" />
<use x="240" y="920" xlink:href="#p" />
<use x="240" y="1000" xlink:href="#p" />
<use x="240" y="1160" xlink:href="#p" />
<use x="240" y="1200" xlink:href="#p" />
<use x="240" y="1240" xlink:href="#p" />
<use x="240" y="1280" xlink:href="#p" />
<use x="240" y="1320" xlink:href="#p" />
<use x="240" y="1360" xlink:href="#p" />
<use x="240" y="1400" xlink:href="#p" />
<use x="240" y="1440" xlink:href="#p" />
<use x="240" y="1680" xlink:href="#p" />
<use x="240" y="1720" xlink:href="#p" />
<use x="240" y="1800" xlink:href="#p" />
<use x="240" y="1920" xlink:href="#p" />
<use x="240" y="2040" xlink:href="#p" />
<use x="240" y="2080" xlink:href="#p" />
<use x="240" y="2120" xlink:href="#p" />
<use x="240" y="2240" xlink:href="#p" />
<use x="240" y="2320" xlink:href="#p" />
<use x="240" y="2360" xlink:href="#p" />
<use x="240" y="2400" xlink:href="#p" />
<use x="240" y="2480" xlink:href="#p" />
<use x="280" y="80" xlink:href="#p" />
<use x="280" y="320" xlink:href="#p" />
<use x="280" y="440" xlink:href="#p" />
<use x="280" y="480" xlink:href="#p" />
<use x="280" y="520" xlink:href="#p" />
<use x="280" y="560" xlink:href="#p" />
<use x="280" y="640" xlink:href="#p" />
<use x="280" y="680" xlink:href="#p" />
<use x="280" y="720" xlink:href="#p" />
<use x="280" y="760" xlink:href="#p" />
<use x="280" y="800" xlink:href="#p" />
<use x="280" y="880" xlink:href="#p" />
<use x="280" y="960" xlink:href="#p" />
<use x="280" y="1000" xlink:href="#p" />
<use x="280" y="1040" xlink:href="#p" />
<use x="280" y="1160" xlink:href="#p" />
<use x="280" y="1200" xlink:href="#p" />
<use x="280" y="1360" xlink:href="#p" />
<use x="280" y="1400" xlink:href="#p" />
<use x="280" y="1560" xlink:href="#p" />
<use x="280" y="1640" xlink:href="#p" />
<use x="280" y="1800" xlink:href="#p" />
<use x="280" y="1840" xlink:href="#p" />
<use x="280" y="2040" xlink:href="#p" />
<use x="280" y="2080" xlink:href="#p" />
<use x="280" y="2240" xlink:href="#p" />
<use x="280" y="2480" xlink:href="#p" />
<use x="320" y="80" xlink:href="#p" />
<use x="320" y="120" xlink:href="#p" />
<use x="320" y="160" xlink:href="#p" />
<use x="320" y="200" xlink:href="#p" />
<use x="320" y="240" xlink:href="#p" />
<use x="320" y="280" xlink:href="#p" />
<use x="320" y="320" xlink:href="#p" />
<use x="320" y="400" xlink:href="#p" />
<use x="320" y="480" xlink:href="#p" />
<use x="320" y="560" xlink:href="#p" />
<use x="320" y="640" xlink:href="#p" />
<use x="320" y="720" xlink:href="#p" />
<use x="320" y="800" xlink:href="#p" />
<use x="320" y="880" xlink:href="#p" />
<use x="320" y="960" xlink:href="#p" />
<use x="320" y="1040" xlink:href="#p" />
<use x="320" y="1120" xlink:href="#p" />
<use x="320" y="1200" xlink:href="#p" />
<use x="320" y="1280" xlink:href="#p" />
<use x="320" y="1360" xlink:href="#p" />
<use x="320" y="1440" xlink:href="#p" />
<use x="320" y="1520" xlink:href="#p" />
<use x="320" y="1600" xlink:href="#p" />
<use x="320" y="1680" xlink:href="#p" />
<use x="320" y="1760" xlink:href="#p" />
<use x="320" y="1840" xlink:href="#p" />
<use x="320" y="1920" xlink:href="#p" />
<use x="320" y="2000" xlink:href="#p" />
<use x="320" y="2080" xlink:href="#p" />
<use x="320" y="2160" xlink:href="#p" />
<use x="320" y="2240" xlink:href="#p" />
<use x="320" y="2280" xlink:href="#p" />
<use x="320" y="2320" xlink:href="#p" />
<use x="320" y="2360" xlink:href="#p" />
<use x="320" y="2400" xlink:href="#p" />
<use x="320" y="2440" xlink:href="#p" />
<use x="320" y="2480" xlink:href="#p" />
<use x="360" y="480" xlink:href="#p" />
<use x="360" y="600" xlink:href="#p" />
<use x="360" y="760" xlink:href="#p" />
<use x="360" y="800" xlink:href="#p" />
<use x="360" y="840" xlink:href="#p" />
<use x="360" y="880" xlink:href="#p" />
<use x="360" y="920" xlink:href="#p" />
<use x="360" y="960" xlink:href="#p" />
<use x="360" y="1040" xlink:href="#p" />
<use x="360" y="1120" xlink:href="#p" />
<use x="360" y="1200" xlink:href="#p" />
<use x="360" y="1360" xlink:href="#p" />
<use x="360" y="1440" xlink:href="#p" />
<use x="360" y="1480" xlink:href="#p" />
<use x="360" y="1520" xlink:href="#p" />
<use x="360" y="1640" xlink:href="#p" />
<use x="360" y="1680" xlink:href="#p" />
<use x="360" y="1720" xlink:href="#p" />
<use x="360" y="1760" xlink:href="#p" />
<use x="360" y="1800" xlink:href="#p" />
<use x="360" y="1840" xlink:href="#p" />
<use x="360" y="2120" xlink:href="#p" />
<use x="400" y="80" xlink:href="#p" />
<use x="400" y="160" xlink:href="#p" />
<use x="400" y="200" xlink:href="#p" />
<use x="400" y="240" xlink:href="#p" />
<use x="400" y="320" xlink:href="#p" />
<use x="400" y="400" xlink:href="#p" />
<use x="400" y="480" xlink:href="#p" />
<use x="400" y="520" xlink:href="#p" />
<use x="400" y="560" xlink:href="#p" />
<use x="400" y="640" xlink:href="#p" />
<use x="400" y="680" xlink:href="#p" />
<use x="400" y="720" xlink:href="#p" />
<use x="400" y="760" xlink:href="#p" />
<use x="400" y="800" xlink:href="#p" />
<use x="400" y="840" xlink:href="#p" />
<use x="400" y="880" xlink:href="#p" />
<use x="400" y="1000" xlink:href="#p" />
<use x="400" y="1200" xlink:href="#p" />
<use x="400" y="1240" xlink:href="#p" />
<use x="400" y="1280" xlink:href="#p" />
<use x="400" y="1320" xlink:href="#p" />
<use x="400" y="1360" xlink:href="#p" />
<use x="400" y="1400" xlink:href="#p" />
<use x="400" y="1520" xlink:href="#p" />
<use x="400" y="1560" xlink:href="#p" />
<use x="400" y="1600" xlink:href="#p" />
<use x="400" y="1720" xlink:href="#p" />
<use x="400" y="1800" xlink:href="#p" />
<use x="400" y="1840" xlink:href="#p" />
<use x="400" y="1880" xlink:href="#p" />
<use x="400" y="1920" xlink:href="#p" />
<use x="400" y="1960" xlink:href="#p" />
<use x="400" y="2000" xlink:href="#p" />
<use x="400" y="2080" xlink:href="#p" />
<use x="400" y="2120" xlink:href="#p" />
<use x="400" y="2200" xlink:href="#p" />
<use x="400" y="2360" xlink:href="#p" />
<use x="400" y="2400" xlink:href="#p" />
<use x="400" y="2440" xlink:href="#p" />
<use x="400" y="2480" xlink:href="#p" />
<use x="440" y="80" xlink:href="#p" />
<use x="440" y="280" xlink:href="#p" />
<use x="440" y="400" xlink:href="#p" />
<use x="440" y="520" xlink:href="#p" />
<use x="440" y="640" xlink:href="#p" />
<use x="440" y="720" xlink:href="#p" />
<use x="440" y="760" xlink:href="#p" />
<use x="440" y="800" xlink:href="#p" />
<use x="440" y="840" xlink:href="#p" />
<use x="440" y="920" xlink:href="#p" />
<use x="440" y="960" xlink:href="#p" />
<use x="440" y="1240" xlink:href="#p" />
<use x="440" y="1400" xlink:href="#p" />
<use x="440" y="1440" xlink:href="#p" />
<use x="440" y="1560" xlink:href="#p" />
<use x="440" y="1640" xlink:href="#p" />
<use x="440" y="1720" xlink:href="#p" />
<use x="440" y="1760" xlink:href="#p" />
<use x="440" y="1880" xlink:href="#p" />
<use x="440" y="1920" xlink:href="#p" />
<use x="440" y="2000" xlink:href="#p" />
<use x="440" y="2040" xlink:href="#p" />
<use x="440" y="2080" xlink:href="#p" />
<use x="440" y="2120" xlink:href="#p" />
<use x="440" y="2160" xlink:href="#p" />
<use x="440" y="2200" xlink:href="#p" />
<use x="440" y="2320" xlink:href="#p" />
<use x="440" y="2440" xlink:href="#p" />
<use x="480" y="120" xlink:href="#p" />
<use x="480" y="160" xlink:href="#p" />
<use x="480" y="240" xlink:href="#p" />
<use x="480" y="320" xlink:href="#p" />
<use x="480" y="440" xlink:href="#p" />
<use x="480" y="640" xlink:href="#p" />
<use x="480" y="680" xlink:href="#p" />
<use x="480" y="760" xlink:href="#p" />
<use x="480" y="880" xlink:href="#p" />
<use x="480" y="920" xlink:href="#p" />
<use x="480" y="960" xlink:href="#p" />
<use x="480" y="1160" xlink:href="#p" />
<use x="480" y="1240" xlink:href="#p" />
<use x="480" y="1320" xlink:href="#p" />
<use x="480" y="1440" xlink:href="#p" />
<use x="480" y="1480" xlink:href="#p" />
<use x="480" y="1520" xlink:href="#p" />
<use x="480" y="1560" xlink:href="#p" />
<use x="480" y="1600" xlink:href="#p" />
<use x="480" y="1840" xlink:href="#p" />
<use x="480" y="1880" xlink:href="#p" />
<use x="480" y="1960" xlink:href="#p" />
<use x="480" y="2040" xlink:href="#p" />
<use x="480" y="2160" xlink:href="#p" />
<use x="480" y="2440" xlink:href="#p" />
<use x="520" y="160" xlink:href="#p" />
<use x="520" y="480" xlink:href="#p" />
<use x="520" y="560" xlink:href="#p" />
<use x="520" y="600" xlink:href="#p" />
<use x="520" y="680" xlink:href="#p" />
<use x="520" y="720" xlink:href="#p" />
<use x="520" y="800" xlink:href="#p" />
<use x="520" y="880" xlink:href="#p" />
<use x="520" y="920" xlink:href="#p" />
<use x="520" y="1040" xlink:href="#p" />
<use x="520" y="1080" xlink:href="#p" />
<use x="520" y="1160" xlink:href="#p" />
<use x="520" y="1200" xlink:href="#p" />
<use x="520" y="1240" xlink:href="#p" />
<use x="520" y="1280" xlink:href="#p" />
<use x="520" y="1360" xlink:href="#p" />
<use x="520" y="1520" xlink:href="#p" />
<use x="520" y="1560" xlink:href="#p" />
<use x="520" y="1640" xlink:href="#p" />
<use x="520" y="1680" xlink:href="#p" />
<use x="520" y="1760" xlink:href="#p" />
<use x="520" y="1800" xlink:href="#p" />
<use x="520" y="1920" xlink:href="#p" />
<use x="520" y="2080" xlink:href="#p" />
<use x="520" y="2120" xlink:href="#p" />
<use x="520" y="2320" xlink:href="#p" />
<use x="520" y="2400" xlink:href="#p" />
<use x="560" y="80" xlink:href="#p" />
<use x="560" y="120" xlink:href="#p" />
<use x="560" y="200" xlink:href="#p" />
<use x="560" y="240" xlink:href="#p" />
<use x="560" y="320" xlink:href="#p" />
<use x="560" y="360" xlink:href="#p" />
<use x="560" y="400" xlink:href="#p" />
<use x="560" y="440" xlink:href="#p" />
<use x="560" y="480" xlink:href="#p" />
<use x="560" y="520" xlink:href="#p" />
<use x="560" y="560" xlink:href="#p" />
<use x="560" y="600" xlink:href="#p" />
<use x="560" y="640" xlink:href="#p" />
<use x="560" y="720" xlink:href="#p" />
<use x="560" y="760" xlink:href="#p" />
<use x="560" y="800" xlink:href="#p" />
<use x="560" y="840" xlink:href="#p" />
<use x="560" y="920" xlink:href="#p" />
<use x="560" y="1000" xlink:href="#p" />
<use x="560" y="1040" xlink:href="#p" />
<use x="560" y="1120" xlink:href="#p" />
<use x="560" y="1160" xlink:href="#p" />
<use x="560" y="1240" xlink:href="#p" />
<use x="560" y="1320" xlink:href="#p" />
<use x="560" y="1360" xlink:href="#p" />
<use x="560" y="1400" xlink:href="#p" />
<use x="560" y="1480" xlink:href="#p" />
<use x="560" y="1520" xlink:href="#p" />
<use x="560" y="1600" xlink:href="#p" />
<use x="560" y="1640" xlink:href="#p" />
<use x="560" y="1680" xlink:href="#p" />
<use x="560" y="1720" xlink:href="#p" />
<use x="560" y="1840" xlink:href="#p" />
<use x="560" y="1880" xlink:href="#p" />
<use x="560" y="1960" xlink:href="#p" />
<use x="560" y="2000" xlink:href="#p" />
<use x="560" y="2040" xlink:href="#p" />
<use x="560" y="2080" xlink:href="#p" />
<use x="560" y="2280" xlink:href="#p" />
<use x="560" y="2320" xlink:href="#p" />
<use x="560" y="2360" xlink:href="#p" />
<use x="560" y="2400" xlink:href="#p" />
<use x="560" y="2480" xlink:href="#p" />
<use x="600" y="120" xlink:href="#p" />
<use x="600" y="200" xlink:href="#p" />
<use x="600" y="280" xlink:href="#p" />
<use x="600" y="360" xlink:href="#p" />
<use x="600" y="480" xlink:href="#p" />
<use x="600" y="520" xlink:href="#p" />
<use x="600" y="600" xlink:href="#p" />
<use x="600" y="640" xlink:href="#p" />
<use x="600" y="680" xlink:href="#p" />
<use x="600" y="840" xlink:href="#p" />
<use x="600" y="880" xlink:href="#p" />
<use x="600" y="920" xlink:href="#p" />
<use x="600" y="960" xlink:href="#p" />
<use x="600" y="1000" xlink:href="#p" />
<use x="600" y="1160" xlink:href="#p" />
<use x="600" y="1200" xlink:href="#p" />
<use x="600" y="1280" xlink:href="#p" />
<use x="600" y="1320" xlink:href="#p" />
<use x="600" y="1360" xlink:href="#p" />
<use x="600" y="1400" xlink:href="#p" />
<use x="600" y="1480" xlink:href="#p" />
<use x="600" y="1680" xlink:href="#p" />
<use x="600" y="1720" xlink:href="#p" />
<use x="600" y="1800" xlink:href="#p" />
<use x="600" y="1920" xlink:href="#p" />
<use x="600" y="1960" xlink:href="#p" />
<use x="600" y="2000" xlink:href="#p" />
<use x="600" y="2080" xlink:href="#p" />
<use x="600" y="2160" xlink:href="#p" />
<use x="600" y="2200" xlink:href="#p" />
<use x="600" y="2320" xlink:href="#p" />
<use x="600" y="2360" xlink:href="#p" />
<use x="600" y="2480" xlink:href="#p" />
<use x="640" y="320" xlink:href="#p" />
<use x="640" y="360" xlink:href="#p" />
<use x="640" y="440" xlink:href="#p" />
<use x="640" y="720" xlink:href="#p" />
<use x="640" y="800" xlink:href="#p" />
<use x="640" y="840" xlink:href="#p" />
<use x="640" y="1000" xlink:href="#p" />
<use x="640" y="1040" xlink:href="#p" />
<use x="640" y="1160" xlink:href="#p" />
<use x="640" y="1360" xlink:href="#p" />
<use x="640" y="1440" xlink:href="#p" />
<use x="640" y="1560" xlink:href="#p" />
<use x="640" y="1600" xlink:href="#p" />
<use x="640" y="1640" xlink:href="#p" />
<use x="640" y="1680" xlink:href="#p" />
<use x="640" y="1800" xlink:href="#p" />
<use x="640" y="1920" xlink:href="#p" />
<use x="640" y="2000" xlink:href="#p" />
<use x="640" y="2120" xlink:href="#p" />
<use x="640" y="2160" xlink:href="#p" />
<use x="640" y="2200" xlink:href="#p" />
<use x="640" y="2240" xlink:href="#p" />
<use x="640" y="2280" xlink:href="#p" />
<use x="640" y="2360" xlink:href="#p" />
<use x="640" y="2400" xlink:href="#p" />
<use x="640" y="2440" xlink:href="#p" />
<use x="680" y="160" xlink:href="#p" />
<use x="680" y="200" xlink:href="#p" />
<use x="680" y="240" xlink:href="#p" />
<use x="680" y="280" xlink:href="#p" />
<use x="680" y="360" xlink:href="#p" />
<use x="680" y="480" xlink:href="#p" />
<use x="680" y="520" xlink:href="#p" />
<use x="680" y="560" xlink:href="#p" />
<use x="680" y="600" xlink:href="#p" />
<use x="680" y="640" xlink:href="#p" />
<use x="680" y="680" xlink:href="#p" />
<use x="680" y="720" xlink:href="#p" />
<use x="680" y="960" xlink:href="#p" />
<use x="680" y="1040" xlink:href="#p" />
<use x="680" y="1080" xlink:href="#p" />
<use x="680" y="1160" xlink:href="#p" />
<use x="680" y="1240" xlink:href="#p" />
<use x="680" y="1320" xlink:href="#p" />
<use x="680" y="1480" xlink:href="#p" />
<use x="680" y="1520" xlink:href="#p" />
<use x="680" y="1560" xlink:href="#p" />
<use x="680" y="1640" xlink:href="#p" />
<use x="680" y="1720" xlink:href="#p" />
<use x="680" y="1760" xlink:href="#p" />
<use x="680" y="1800" xlink:href="#p" />
<use x="680" y="2080" xlink:href="#p" />
<use x="680" y="2120" xlink:href="#p" />
<use x="680" y="2160" xlink:href="#p" />
<use x="680" y="2200" xlink:href="#p" />
<use x="680" y="2400" xlink:href="#p" />
<use x="720" y="80" xlink:href="#p" />
<use x="720" y="120" xlink:href="#p" />
<use x="720" y="200" xlink:href="#p" />
<use x="720" y="280" xlink:href="#p" />
<use x="720" y="320" xlink:href="#p" />
<use x="720" y="480" xlink:href="#p" />
<use x="720" y="520" xlink:href="#p" />
<use x="720" y="560" xlink:href="#p" />
<use x="720" y="640" xlink:href="#p" />
<use x="720" y="760" xlink:href="#p" />
<use x="720" y="960" xlink:href="#p" />
<use x="720" y="1000" xlink:href="#p" />
<use x="720" y="1040" xlink:href="#p" />
<use x="720" y="1120" xlink:href="#p" />
<use x="720" y="1200" xlink:href="#p" />
<use x="720" y="1240" xlink:href="#p" />
<use x="720" y="1280" xlink:href="#p" />
<use x="720" y="1360" xlink:href="#p" />
<use x="720" y="1400" xlink:href="#p" />
<use x="720" y="1440" xlink:href="#p" />
<use x="720" y="1520" xlink:href="#p" />
<use x="720" y="1720" xlink:href="#p" />
<use x="720" y="1800" xlink:href="#p" />
<use x="720" y="1840" xlink:href="#p" />
<use x="720" y="1920" xlink:href="#p" />
<use x="720" y="2080" xlink:href="#p" />
<use x="720" y="2160" xlink:href="#p" />
<use x="720" y="2200" xlink:href="#p" />
<use x="720" y="2480" xlink:href="#p" />
<use x="760" y="120" xlink:href="#p" />
<use x="760" y="160" xlink:href="#p" />
<use x="760" y="200" xlink:href="#p" />
<use x="760" y="240" xlink:href="#p" />
<use x="760" y="440" xlink:href="#p" />
<use x="760" y="480" xlink:href="#p" />
<use x="760" y="560" xlink:href="#p" />
<use x="760" y="600" xlink:href="#p" />
<use x="760" y="640" xlink:href="#p" />
<use x="760" y="680" xlink:href="#p" />
<use x="760" y="760" xlink:href="#p" />
<use x="760" y="800" xlink:href="#p" />
<use x="760" y="840" xlink:href="#p" />
<use x="760" y="1040" xlink:href="#p" />
<use x="760" y="1080" xlink:href="#p" />
<use x="760" y="1120" xlink:href="#p" />
<use x="760" y="1160" xlink:href="#p" />
<use x="760" y="1240" xlink:href="#p" />
<use x="760" y="1280" xlink:href="#p" />
<use x="760" y="1360" xlink:href="#p" />
<use x="760" y="1400" xlink:href="#p" />
<use x="760" y="1520" xlink:href="#p" />
<use x="760" y="1640" xlink:href="#p" />
<use x="760" y="1680" xlink:href="#p" />
<use x="760" y="1720" xlink:href="#p" />
<use x="760" y="1800" xlink:href="#p" />
<use x="760" y="1840" xlink:href="#p" />
<use x="760" y="1920" xlink:href="#p" />
<use x="760" y="2000" xlink:href="#p" />
<use x="760" y="2040" xlink:href="#p" />
<use x="760" y="2240" xlink:href="#p" />
<use x="760" y="2280" xlink:href="#p" />
<use x="760" y="2320" xlink:href="#p" />
<use x="760" y="2440" xlink:href="#p" />
<use x="800" y="200" xlink:href="#p" />
<use x="800" y="240" xlink:href="#p" />
<use x="800" y="320" xlink:href="#p" />
<use x="800" y="440" xlink:href="#p" />
<use x="800" y="480" xlink:href="#p" />
<use x="800" y="520" xlink:href="#p" />
<use x="800" y="560" xlink:href="#p" />
<use x="800" y="640" xlink:href="#p" />
<use x="800" y="760" xlink:href="#p" />
<use x="800" y="960" xlink:href="#p" />
<use x="800" y="1000" xlink:href="#p" />
<use x="800" y="1120" xlink:href="#p" />
<use x="800" y="1280" xlink:href="#p" />
<use x="800" y="1440" xlink:href="#p" />
<use x="800" y="1520" xlink:href="#p" />
<use x="800" y="1560" xlink:href="#p" />
<use x="800" y="1640" xlink:href="#p" />
<use x="800" y="1760" xlink:href="#p" />
<use x="800" y="1800" xlink:href="#p" />
<use x="800" y="1880" xlink:href="#p" />
<use x="800" y="2000" xlink:href="#p" />
<use x="800" y="2040" xlink:href="#p" />
<use x="800" y="2120" xlink:href="#p" />
<use x="800" y="2200" xlink:href="#p" />
<use x="800" y="2280" xlink:href="#p" />
<use x="800" y="2320" xlink:href="#p" />
<use x="800" y="2360" xlink:href="#p" />
<use x="800" y="2440" xlink:href="#p" />
<use x="800" y="2480" xlink:href="#p" />
<use x="840" y="80" xlink:href="#p" />
<use x="840" y="120" xlink:href="#p" />
<use x="840" y="160" xlink:href="#p" />
<use x="840" y="360" xlink:href="#p" />
<use x="840" y="400" xlink:href="#p" />
<use x="840" y="440" xlink:href="#p" />
<use x="840" y="600" xlink:href="#p" />
<use x="840" y="640" xlink:href="#p" />
<use x="840" y="680" xlink:href="#p" />
<use x="840" y="800" xlink:href="#p" />
<use x="840" y="840" xlink:href="#p" />
<use x="840" y="880" xlink:href="#p" />
<use x="840" y="920" xlink:href="#p" />
<use x="840" y="960" xlink:href="#p" />
<use x="840" y="1000" xlink:href="#p" />
<use x="840" y="1040" xlink:href="#p" />
<use x="840" y="1200" xlink:href="#p" />
<use x="840" y="1280" xlink:href="#p" />
<use x="840" y="1360" xlink:href="#p" />
<use x="840" y="1400" xlink:href="#p" />
<use x="840" y="1560" xlink:href="#p" />
<use x="840" y="1800" xlink:href="#p" />
<use x="840" y="1880" xlink:href="#p" />
<use x="840" y="1920" xlink:href="#p" />
<use x="840" y="2040" xlink:href="#p" />
<use x="840" y="2080" xlink:href="#p" />
<use x="840" y="2120" xlink:href="#p" />
<use x="840" y="2400" xlink:href="#p" />
<use x="840" y="2440" xlink:href="#p" />
<use x="880" y="160" xlink:href="#p" />
<use x="880" y="240" xlink:href="#p" />
<use x="880" y="280" xlink:href="#p" />
<use x="880" y="320" xlink:href="#p" />
<use x="880" y="440" xlink:href="#p" />
<use x="880" y="520" xlink:href="#p" />
<use x="880" y="560" xlink:href="#p" />
<use x="880" y="600" xlink:href="#p" />
<use x="880" y="800" xlink:href="#p" />
<use x="880" y="960" xlink:href="#p" />
<use x="880" y="1000" xlink:href="#p" />
<use x="880" y="1080" xlink:href="#p" />
<use x="880" y="1280" xlink:href="#p" />
<use x="880" y="1320" xlink:href="#p" />
<use x="880" y="1360" xlink:href="#p" />
<use x="880" y="1440" xlink:href="#p" />
<use x="880" y="1560" xlink:href="#p" />
<use x="880" y="1600" xlink:href="#p" />
<use x="880" y="1680" xlink:href="#p" />
<use x="880" y="1720" xlink:href="#p" />
<use x="880" y="1760" xlink:href="#p" />
<use x="880" y="1840" xlink:href="#p" />
<use x="880" y="1960" xlink:href="#p" />
<use x="880" y="2000" xlink:href="#p" />
<use x="880" y="2040" xlink:href="#p" />
<use x="880" y="2080" xlink:href="#p" />
<use x="880" y="2120" xlink:href="#p" />
<use x="880" y="2160" xlink:href="#p" />
<use x="880" y="2240" xlink:href="#p" />
<use x="880" y="2400" xlink:href="#p" />
<use x="880" y="2480" xlink:href="#p" />
<use x="920" y="160" xlink:href="#p" />
<use x="920" y="240" xlink:href="#p" />
<use x="920" y="400" xlink:href="#p" />
<use x="920" y="440" xlink:href="#p" />
<use x="920" y="480" xlink:href="#p" />
<use x="920" y="640" xlink:href="#p" />
<use x="920" y="680" xlink:href="#p" />
<use x="920" y="720" xlink:href="#p" />
<use x="920" y="880" xlink:href="#p" />
<use x="920" y="920" xlink:href="#p" />
<use x="920" y="1000" xlink:href="#p" />
<use x="920" y="1080" xlink:href="#p" />
<use x="920" y="1120" xlink:href="#p" />
<use x="920" y="1160" xlink:href="#p" />
<use x="920" y="1280" xlink:href="#p" />
<use x="920" y="1320" xlink:href="#p" />
<use x="920" y="1440" xlink:href="#p" />
<use x="920" y="1640" xlink:href="#p" />
<use x="920" y="1680" xlink:href="#p" />
<use x="920" y="1840" xlink:href="#p" />
<use x="920" y="1920" xlink:href="#p" />
<use x="920" y="2080" xlink:href="#p" />
<use x="920" y="2200" xlink:href="#p" />
<use x="920" y="2240" xlink:href="#p" />
<use x="920" y="2280" xlink:href="#p" />
<use x="920" y="2360" xlink:href="#p" />
<use x="960" y="120" xlink:href="#p" />
<use x="960" y="160" xlink:href="#p" />
<use x="960" y="320" xlink:href="#p" />
<use x="960" y="360" xlink:href="#p" />
<use x="960" y="400" xlink:href="#p" />
<use x="960" y="440" xlink:href="#p" />
<use x="960" y="520" xlink:href="#p" />
<use x="960" y="600" xlink:href="#p" />
<use x="960" y="680" xlink:href="#p" />
<use x="960" y="720" xlink:href="#p" />
<use x="960" y="760" xlink:href="#p" />
<use x="960" y="880" xlink:href="#p" />
<use x="960" y="960" xlink:href="#p" />
<use x="960" y="1000" xlink:href="#p" />
<use x="960" y="1080" xlink:href="#p" />
<use x="960" y="1360" xlink:href="#p" />
<use x="960" y="1440" xlink:href="#p" />
<use x="960" y="1480" xlink:href="#p" />
<use x="960" y="1600" xlink:href="#p" />
<use x="960" y="1640" xlink:href="#p" />
<use x="960" y="1760" xlink:href="#p" />
<use x="960" y="1840" xlink:href="#p" />
<use x="960" y="1880" xlink:href="#p" />
<use x="960" y="1920" xlink:href="#p" />
<use x="960" y="2000" xlink:href="#p" />
<use x="960" y="2080" xlink:href="#p" />
<use x="960" y="2240" xlink:href="#p" />
<use x="960" y="2320" xlink:href="#p" />
<use x="960" y="2360" xlink:href="#p" />
<use x="960" y="2440" xlink:href="#p" />
<use x="1000" y="200" xlink:href="#p" />
<use x="1000" y="440" xlink:href="#p" />
<use x="1000" y="480" xlink:href="#p" />
<use x="1000" y="680" xlink:href="#p" />
<use x="1000" y="720" xlink:href="#p" />
<use x="1000" y="760" xlink:href="#p" />
<use x="1000" y="920" xlink:href="#p" />
<use x="1000" y="1040" xlink:href="#p" />
<use x="1000" y="1080" xlink:href="#p" />
<use x="1000" y="1160" xlink:href="#p" />
<use x="1000" y="1240" xlink:href="#p" />
<use x="1000" y="1320" xlink:href="#p" />
<use x="1000" y="1360" xlink:href="#p" />
<use x="1000" y="1600" xlink:href="#p" />
<use x="1000" y="1640" xlink:href="#p" />
<use x="1000" y="1720" xlink:href="#p" />
<use x="1000" y="1760" xlink:href="#p" />
<use x="1000" y="1920" xlink:href="#p" />
<use x="1000" y="1960" xlink:href="#p" />
<use x="1000" y="2120" xlink:href="#p" />
<use x="1000" y="2240" xlink:href="#p" />
<use x="1000" y="2360" xlink:href="#p" />
<use x="1000" y="2400" xlink:href="#p" />
<use x="1000" y="2440" xlink:href="#p" />
<use x="1040" y="80" xlink:href="#p" />
<use x="1040" y="280" xlink:href="#p" />
<use x="1040" y="320" xlink:href="#p" />
<use x="1040" y="360" xlink:href="#p" />
<use x="1040" y="400" xlink:href="#p" />
<use x="1040" y="440" xlink:href="#p" />
<use x="1040" y="480" xlink:href="#p" />
<use x="1040" y="520" xlink:href="#p" />
<use x="1040" y="560" xlink:href="#p" />
<use x="1040" y="680" xlink:href="#p" />
<use x="1040" y="760" xlink:href="#p" />
<use x="1040" y="840" xlink:href="#p" />
<use x="1040" y="880" xlink:href="#p" />
<use x="1040" y="920" xlink:href="#p" />
<use x="1040" y="1000" xlink:href="#p" />
<use x="1040" y="1160" xlink:href="#p" />
<use x="1040" y="1320" xlink:href="#p" />
<use x="1040" y="1400" xlink:href="#p" />
<use x="1040" y="1760" xlink:href="#p" />
<use x="1040" y="1880" xlink:href="#p" />
<use x="1040" y="1960" xlink:href="#p" />
<use x="1040" y="2000" xlink:href="#p" />
<use x="1040" y="2040" xlink:href="#p" />
<use x="1040" y="2080" xlink:href="#p" />
<use x="1040" y="2160" xlink:href="#p" />
<use x="1040" y="2240" xlink:href="#p" />
<use x="1040" y="2360" xlink:href="#p" />
<use x="1040" y="2400" xlink:href="#p" />
<use x="1040" y="2440" xlink:href="#p" />
<use x="1080" y="80" xlink:href="#p" />
<use x="1080" y="200" xlink:href="#p" />
<use x="1080" y="240" xlink:href="#p" />
<use x="1080" y="280" xlink:href="#p" />
<use x="1080" y="360" xlink:href="#p" />
<use x="1080" y="480" xlink:href="#p" />
<use x="1080" y="560" xlink:href="#p" />
<use x="1080" y="600" xlink:href="#p" />
<use x="1080" y="720" xlink:href="#p" />
<use x="1080" y="760" xlink:href="#p" />
<use x="1080" y="800" xlink:href="#p" />
<use x="1080" y="920" xlink:href="#p" />
<use x="1080" y="1040" xlink:href="#p" />
<use x="1080" y="1080" xlink:href="#p" />
<use x="1080" y="1160" xlink:href="#p" />
<use x="1080" y="1200" xlink:href="#p" />
<use x="1080" y="1280" xlink:href="#p" />
<use x="1080" y="1320" xlink:href="#p" />
<use x="1080" y="1400" xlink:href="#p" />
<use x="1080" y="1520" xlink:href="#p" />
<use x="1080" y="1560" xlink:href="#p" />
<use x="1080" y="1600" xlink:href="#p" />
<use x="1080" y="1680" xlink:href="#p" />
<use x="1080" y="1720" xlink:href="#p" />
<use x="1080" y="1960" xlink:href="#p" />
<use x="1080" y="2000" xlink:href="#p" />
<use x="1080" y="2080" xlink:href="#p" />
<use x="1080" y="2160" xlink:href="#p" />
<use x="1080" y="2200" xlink:href="#p" />
<use x="1080" y="2240" xlink:href="#p" />
<use x="1080" y="2320" xlink:href="#p" />
<use x="1080" y="2480" xlink:href="#p" />
<use x="1120" y="160" xlink:href="#p" />
<use x="1120" y="240" xlink:href="#p" />
<use x="1120" y="320" xlink:href="#p" />
<use x="1120" y="520" xlink:href="#p" />
<use x="1120" y="720" xlink:href="#p" />
<use x="1120" y="840" xlink:href="#p" />
<use x="1120" y="960" xlink:href="#p" />
<use x="1120" y="1080" xlink:href="#p" />
<use x="1120" y="1200" xlink:href="#p" />
<use x="1120" y="1240" xlink:href="#p" />
<use x="1120" y="1320" xlink:href="#p" />
<use x="1120" y="1560" xlink:href="#p" />
<use x="1120" y="1640" xlink:href="#p" />
<use x="1120" y="1680" xlink:href="#p" />
<use x="1120" y="1800" xlink:href="#p" />
<use x="1120" y="1880" xlink:href="#p" />
<use x="1120" y="1920" xlink:href="#p" />
<use x="1120" y="1960" xlink:href="#p" />
<use x="1120" y="2040" xlink:href="#p" />
<use x="1120" y="2160" xlink:href="#p" />
<use x="1120" y="2280" xlink:href="#p" />
<use x="1160" y="160" xlink:href="#p" />
<use x="1160" y="200" xlink:href="#p" />
<use x="1160" y="240" xlink:href="#p" />
<use x="1160" y="360" xlink:href="#p" />
<use x="1160" y="400" xlink:href="#p" />
<use x="1160" y="440" xlink:href="#p" />
<use x="1160" y="520" xlink:href="#p" />
<use x="1160" y="560" xlink:href="#p" />
<use x="1160" y="600" xlink:href="#p" />
<use x="1160" y="640" xlink:href="#p" />
<use x="1160" y="680" xlink:href="#p" />
<use x="1160" y="800" xlink:href="#p" />
<use x="1160" y="840" xlink:href="#p" />
<use x="1160" y="880" xlink:href="#p" />
<use x="1160" y="920" xlink:href="#p" />
<use x="1160" y="1000" xlink:href="#p" />
<use x="1160" y="1080" xlink:href="#p" />
<use x="1160" y="1120" xlink:href="#p" />
<use x="1160" y="1240" xlink:href="#p" />
<use x="1160" y="1280" xlink:href="#p" />
<use x="1160" y="1320" xlink:href="#p" />
<use x="1160" y="1360" xlink:href="#p" />
<use x="1160" y="1400" xlink:href="#p" />
<use x="1160" y="1520" xlink:href="#p" />
<use x="1160" y="1640" xlink:href="#p" />
<use x="1160" y="1680" xlink:href="#p" />
<use x="1160" y="1720" xlink:href="#p" />
<use x="1160" y="1760" xlink:href="#p" />
<use x="1160" y="2000" xlink:href="#p" />
<use x="1160" y="2120" xlink:href="#p" />
<use x="1160" y="2200" xlink:href="#p" />
<use x="1160" y="2400" xlink:href="#p" />
<use x="1200" y="120" xlink:href="#p" />
<use x="1200" y="200" xlink:href="#p" />
<use x="1200" y="240" xlink:href="#p" />
<use x="1200" y="280" xlink:href="#p" />
<use x="1200" y="320" xlink:href="#p" />
<use x="1200" y="360" xlink:href="#p" />
<use x="1200" y="400" xlink:href="#p" />
<use x="1200" y="440" xlink:href="#p" />
<use x="1200" y="520" xlink:href="#p" />
<use x="1200" y="560" xlink:href="#p" />
<use x="1200" y="720" xlink:href="#p" />
<use x="1200" y="760" xlink:href="#p" />
<use x="1200" y="880" xlink:href="#p" />
<use x="1200" y="920" xlink:href="#p" />
<use x="1200" y="960" xlink:href="#p" />
<use x="1200" y="1000" xlink:href="#p" />
<use x="1200" y="1040" xlink:href="#p" />
<use x="1200" y="1080" xlink:href="#p" />
<use x="1200" y="1120" xlink:href="#p" />
<use x="1200" y="1200" xlink:href="#p" />
<use x="1200" y="1240" xlink:href="#p" />
<use x="1200" y="1280" xlink:href="#p" />
<use x="1200" y="1320" xlink:href="#p" />
<use x="1200" y="1360" xlink:href="#p" />
<use x="1200" y="1400" xlink:href="#p" />
<use x="1200" y="1560" xlink:href="#p" />
<use x="1200" y="1640" xlink:href="#p" />
<use x="1200" y="1800" xlink:href="#p" />
<use x="1200" y="2040" xlink:href="#p" />
<use x="1200" y="2160" xlink:href="#p" />
<use x="1200" y="2200" xlink:href="#p" />
<use x="1200" y="2240" xlink:href="#p" />
<use x="1200" y="2280" xlink:href="#p" />
<use x="1200" y="2320" xlink:href="#p" />
<use x="1200" y="2440" xlink:href="#p" />
<use x="1240" y="80" xlink:href="#p" />
<use x="1240" y="120" xlink:href="#p" />
<use x="1240" y="160" xlink:href="#p" />
<use x="1240" y="200" xlink:href="#p" />
<use x="1240" y="240" xlink:href="#p" />
<use x="1240" y="400" xlink:href="#p" />
<use x="1240" y="480" xlink:href="#p" />
<use x="1240" y="560" xlink:href="#p" />
<use x="1240" y="600" xlink:href="#p" />
<use x="1240" y="680" xlink:href="#p" />
<use x="1240" y="720" xlink:href="#p" />
<use x="1240" y="800" xlink:href="#p" />
<use x="1240" y="840" xlink:href="#p" />
<use x="1240" y="1000" xlink:href="#p" />
<use x="1240" y="1040" xlink:href="#p" />
<use x="1240" y="1080" xlink:href="#p" />
<use x="1240" y="1120" xlink:href="#p" />
<use x="1240" y="1200" xlink:href="#p" />
<use x="1240" y="1360" xlink:href="#p" />
<use x="1240" y="1480" xlink:href="#p" />
<use x="1240" y="1520" xlink:href="#p" />
<use x="1240" y="1560" xlink:href="#p" />
<use x="1240" y="1600" xlink:href="#p" />
<use x="1240" y="1640" xlink:href="#p" />
<use x="1240" y="1680" xlink:href="#p" />
<use x="1240" y="1800" xlink:href="#p" />
<use x="1240" y="1840" xlink:href="#p" />
<use x="1240" y="1920" xlink:href="#p" />
<use x="1240" y="2000" xlink:href="#p" />
<use x="1240" y="2040" xlink:href="#p" />
<use x="1240" y="2080" xlink:href="#p" />
<use x="1240" y="2160" xlink:href="#p" />
<use x="1240" y="2320" xlink:href="#p" />
<use x="1240" y="2360" xlink:href="#p" />
<use x="1240" y="2400" xlink:href="#p" />
<use x="1280" y="80" xlink:href="#p" />
<use x="1280" y="200" xlink:href="#p" />
<use x="1280" y="240" xlink:href="#p" />
<use x="1280" y="320" xlink:href="#p" />
<use x="1280" y="400" xlink:href="#p" />
<use x="1280" y="440" xlink:href="#p" />
<use x="1280" y="600" xlink:href="#p" />
<use x="1280" y="640" xlink:href="#p" />
<use x="1280" y="680" xlink:href="#p" />
<use x="1280" y="840" xlink:href="#p" />
<use x="1280" y="880" xlink:href="#p" />
<use x="1280" y="1040" xlink:href="#p" />
<use x="1280" y="1080" xlink:href="#p" />
<use x="1280" y="1160" xlink:href="#p" />
<use x="1280" y="1200" xlink:href="#p" />
<use x="1280" y="1280" xlink:href="#p" />
<use x="1280" y="1360" xlink:href="#p" />
<use x="1280" y="1400" xlink:href="#p" />
<use x="1280" y="1520" xlink:href="#p" />
<use x="1280" y="1600" xlink:href="#p" />
<use x="1280" y="1640" xlink:href="#p" />
<use x="1280" y="1720" xlink:href="#p" />
<use x="1280" y="1760" xlink:href="#p" />
<use x="1280" y="1880" xlink:href="#p" />
<use x="1280" y="1920" xlink:href="#p" />
<use x="1280" y="1960" xlink:href="#p" />
<use x="1280" y="2000" xlink:href="#p" />
<use x="1280" y="2080" xlink:href="#p" />
<use x="1280" y="2160" xlink:href="#p" />
<use x="1280" y="2240" xlink:href="#p" />
<use x="1280" y="2320" xlink:href="#p" />
<use x="1280" y="2360" xlink:href="#p" />
<use x="1280" y="2480" xlink:href="#p" />
<use x="1320" y="120" xlink:href="#p" />
<use x="1320" y="240" xlink:href="#p" />
<use x="1320" y="400" xlink:href="#p" />
<use x="1320" y="600" xlink:href="#p" />
<use x="1320" y="640" xlink:href="#p" />
<use x="1320" y="680" xlink:href="#p" />
<use x="1320" y="800" xlink:href="#p" />
<use x="1320" y="840" xlink:href="#p" />
<use x="1320" y="880" xlink:href="#p" />
<use x="1320" y="920" xlink:href="#p" />
<use x="1320" y="1040" xlink:href="#p" />
<use x="1320" y="1160" xlink:href="#p" />
<use x="1320" y="1200" xlink:href="#p" />
<use x="1320" y="1360" xlink:href="#p" />
<use x="1320" y="1440" xlink:href="#p" />
<use x="1320" y="1480" xlink:href="#p" />
<use x="1320" y="1800" xlink:href="#p" />
<use x="1320" y="2040" xlink:href="#p" />
<use x="1320" y="2160" xlink:href="#p" />
<use x="1320" y="2320" xlink:href="#p" />
<use x="1320" y="2360" xlink:href="#p" />
<use x="1320" y="2440" xlink:href="#p" />
<use x="1320" y="2480" xlink:href="#p" />
<use x="1360" y="200" xlink:href="#p" />
<use x="1360" y="240" xlink:href="#p" />
<use x="1360" y="280" xlink:href="#p" />
<use x="1360" y="320" xlink:href="#p" />
<use x="1360" y="360" xlink:href="#p" />
<use x="1360" y="400" xlink:href="#p" />
<use x="1360" y="480" xlink:href="#p" />
<use x="1360" y="520" xlink:href="#p" />
<use x="1360" y="880" xlink:href="#p" />
<use x="1360" y="1200" xlink:href="#p" />
<use x="1360" y="1240" xlink:href="#p" />
<use x="1360" y="1280" xlink:href="#p" />
<use x="1360" y="1320" xlink:href="#p" />
<use x="1360" y="1360" xlink:href="#p" />
<use x="1360" y="1400" xlink:href="#p" />
<use x="1360" y="1520" xlink:href="#p" />
<use x="1360" y="1560" xlink:href="#p" />
<use x="1360" y="1600" xlink:href="#p" />
<use x="1360" y="1680" xlink:href="#p" />
<use x="1360" y="1720" xlink:href="#p" />
<use x="1360" y="1880" xlink:href="#p" />
<use x="1360" y="2080" xlink:href="#p" />
<use x="1360" y="2160" xlink:href="#p" />
<use x="1360" y="2200" xlink:href="#p" />
<use x="1360" y="2240" xlink:href="#p" />
<use x="1360" y="2280" xlink:href="#p" />
<use x="1360" y="2320" xlink:href="#p" />
<use x="1360" y="2400" xlink:href="#p" />
<use x="1400" y="80" xlink:href="#p" />
<use x="1400" y="120" xlink:href="#p" />
<use x="1400" y="160" xlink:href="#p" />
<use x="1400" y="240" xlink:href="#p" />
<use x="1400" y="280" xlink:href="#p" />
<use x="1400" y="360" xlink:href="#p" />
<use x="1400" y="520" xlink:href="#p" />
<use x="1400" y="600" xlink:href="#p" />
<use x="1400" y="680" xlink:href="#p" />
<use x="1400" y="960" xlink:href="#p" />
<use x="1400" y="1000" xlink:href="#p" />
<use x="1400" y="1040" xlink:href="#p" />
<use x="1400" y="1120" xlink:href="#p" />
<use x="1400" y="1200" xlink:href="#p" />
<use x="1400" y="1240" xlink:href="#p" />
<use x="1400" y="1280" xlink:href="#p" />
<use x="1400" y="1320" xlink:href="#p" />
<use x="1400" y="1360" xlink:href="#p" />
<use x="1400" y="1400" xlink:href="#p" />
<use x="1400" y="1440" xlink:href="#p" />
<use x="1400" y="1480" xlink:href="#p" />
<use x="1400" y="1560" xlink:href="#p" />
<use x="1400" y="1640" xlink:href="#p" />
<use x="1400" y="1720" xlink:href="#p" />
<use x="1400" y="1760" xlink:href="#p" />
<use x="1400" y="1840" xlink:href="#p" />
<use x="1400" y="2000" xlink:href="#p" />
<use x="1400" y="2080" xlink:href="#p" />
<use x="1400" y="2120" xlink:href="#p" />
<use x="1400" y="2200" xlink:href="#p" />
<use x="1400" y="2240" xlink:href="#p" />
<use x="1440" y="120" xlink:href="#p" />
<use x="1440" y="160" xlink:href="#p" />
<use x="1440" y="320" xlink:href="#p" />
<use x="1440" y="520" xlink:href="#p" />
<use x="1440" y="640" xlink:href="#p" />
<use x="1440" y="760" xlink:href="#p" />
<use x="1440" y="800" xlink:href="#p" />
<use x="1440" y="880" xlink:href="#p" />
<use x="1440" y="960" xlink:href="#p" />
<use x="1440" y="1040" xlink:href="#p" />
<use x="1440" y="1160" xlink:href="#p" />
<use x="1440" y="1240" xlink:href="#p" />
<use x="1440" y="1360" xlink:href="#p" />
<use x="1440" y="1440" xlink:href="#p" />
<use x="1440" y="1480" xlink:href="#p" />
<use x="1440" y="1640" xlink:href="#p" />
<use x="1440" y="1680" xlink:href="#p" />
<use x="1440" y="1720" xlink:href="#p" />
<use x="1440" y="1840" xlink:href="#p" />
<use x="1440" y="1960" xlink:href="#p" />
<use x="1440" y="2000" xlink:href="#p" />
<use x="1440" y="2160" xlink:href="#p" />
<use x="1440" y="2200" xlink:href="#p" />
<use x="1440" y="2240" xlink:href="#p" />
<use x="1440" y="2280" xlink:href="#p" />
<use x="1440" y="2400" xlink:href="#p" />
<use x="1480" y="200" xlink:href="#p" />
<use x="1480" y="240" xlink:href="#p" />
<use x="1480" y="360" xlink:href="#p" />
<use x="1480" y="400" xlink:href="#p" />
<use x="1480" y="480" xlink:href="#p" />
<use x="1480" y="560" xlink:href="#p" />
<use x="1480" y="600" xlink:href="#p" />
<use x="1480" y="680" xlink:href="#p" />
<use x="1480" y="720" xlink:href="#p" />
<use x="1480" y="840" xlink:href="#p" />
<use x="1480" y="920" xlink:href="#p" />
<use x="1480" y="960" xlink:href="#p" />
<use x="1480" y="1120" xlink:href="#p" />
<use x="1480" y="1160" xlink:href="#p" />
<use x="1480" y="1440" xlink:href="#p" />
<use x="1480" y="1520" xlink:href="#p" />
<use x="1480" y="1600" xlink:href="#p" />
<use x="1480" y="1680" xlink:href="#p" />
<use x="1480" y="1720" xlink:href="#p" />
<use x="1480" y="1800" xlink:href="#p" />
<use x="1480" y="1920" xlink:href="#p" />
<use x="1480" y="1960" xlink:href="#p" />
<use x="1480" y="2040" xlink:href="#p" />
<use x="1480" y="2080" xlink:href="#p" />
<use x="1480" y="2120" xlink:href="#p" />
<use x="1480" y="2240" xlink:href="#p" />
<use x="1480" y="2280" xlink:href="#p" />
<use x="1480" y="2320" xlink:href="#p" />
<use x="1480" y="2360" xlink:href="#p" />
<use x="1480" y="2400" xlink:href="#p" />
<use x="1480" y="2480" xlink:href="#p" />
<use x="1520" y="200" xlink:href="#p" />
<use x="1520" y="240" xlink:href="#p" />
<use x="1520" y="280" xlink:href="#p" />
<use x="1520" y="320" xlink:href="#p" />
<use x="1520" y="480" xlink:href="#p" />
<use x="1520" y="520" xlink:href="#p" />
<use x="1520" y="560" xlink:href="#p" />
<use x="1520" y="600" xlink:href="#p" />
<use x="1520" y="800" xlink:href="#p" />
<use x="1520" y="960" xlink:href="#p" />
<use x="1520" y="1040" xlink:href="#p" />
<use x="1520" y="1120" xlink:href="#p" />
<use x="1520" y="1160" xlink:href="#p" />
<use x="1520" y="1280" xlink:href="#p" />
<use x="1520" y="1320" xlink:href="#p" />
<use x="1520" y="1480" xlink:href="#p" />
<use x="1520" y="1520" xlink:href="#p" />
<use x="1520" y="1680" xlink:href="#p" />
<use x="1520" y="1720" xlink:href="#p" />
<use x="1520" y="1760" xlink:href="#p" />
<use x="1520" y="1800" xlink:href="#p" />
<use x="1520" y="1880" xlink:href="#p" />
<use x="1520" y="1920" xlink:href="#p" />
<use x="1520" y="1960" xlink:href="#p" />
<use x="1520" y="2000" xlink:href="#p" />
<use x="1520" y="2200" xlink:href="#p" />
<use x="1520" y="2320" xlink:href="#p" />
<use x="1520" y="2360" xlink:href="#p" />
<use x="1520" y="2400" xlink:href="#p" />
<use x="1520" y="2440" xlink:href="#p" />
<use x="1520" y="2480" xlink:href="#p" />
<use x="1560" y="80" xlink:href="#p" />
<use x="1560" y="280" xlink:href="#p" />
<use x="1560" y="360" xlink:href="#p" />
<use x="1560" y="440" xlink:href="#p" />
<use x="1560" y="520" xlink:href="#p" />
<use x="1560" y="560" xlink:href="#p" />
<use x="1560" y="600" xlink:href="#p" />
<use x="1560" y="840" xlink:href="#p" />
<use x="1560" y="880" xlink:href="#p" />
<use x="1560" y="920" xlink:href="#p" />
<use x="1560" y="1400" xlink:href="#p" />
<use x="1560" y="1480" xlink:href="#p" />
<use x="1560" y="1520" xlink:href="#p" />
<use x="1560" y="1560" xlink:href="#p" />
<use x="1560" y="1600" xlink:href="#p" />
<use x="1560" y="1720" xlink:href="#p" />
<use x="1560" y="1800" xlink:href="#p" />
<use x="1560" y="1880" xlink:href="#p" />
<use x="1560" y="2000" xlink:href="#p" />
<use x="1560" y="2120" xlink:href="#p" />
<use x="1560" y="2160" xlink:href="#p" />
<use x="1560" y="2200" xlink:href="#p" />
<use x="1560" y="2400" xlink:href="#p" />
<use x="1560" y="2440" xlink:href="#p" />
<use x="1560" y="2480" xlink:href="#p" />
<use x="1600" y="120" xlink:href="#p" />
<use x="1600" y="240" xlink:href="#p" />
<use x="1600" y="280" xlink:href="#p" />
<use x="1600" y="320" xlink:href="#p" />
<use x="1600" y="360" xlink:href="#p" />
<use x="1600" y="560" xlink:href="#p" />
<use x="1600" y="600" xlink:href="#p" />
<use x="1600" y="640" xlink:href="#p" />
<use x="1600" y="680" xlink:href="#p" />
<use x="1600" y="800" xlink:href="#p" />
<use x="1600" y="880" xlink:href="#p" />
<use x="1600" y="1040" xlink:href="#p" />
<use x="1600" y="1080" xlink:href="#p" />
<use x="1600" y="1120" xlink:href="#p" />
<use x="1600" y="1160" xlink:href="#p" />
<use x="1600" y="1280" xlink:href="#p" />
<use x="1600" y="1400" xlink:href="#p" />
<use x="1600" y="1440" xlink:href="#p" />
<use x="1600" y="1520" xlink:href="#p" />
<use x="1600" y="1560" xlink:href="#p" />
<use x="1600" y="1600" xlink:href="#p" />
<use x="1600" y="1640" xlink:href="#p" />
<use x="1600" y="1760" xlink:href="#p" />
<use x="1600" y="1800" xlink:href="#p" />
<use x="1600" y="2120" xlink:href="#p" />
<use x="1600" y="2240" xlink:href="#p" />
<use x="1600" y="2320" xlink:href="#p" />
<use x="1600" y="2480" xlink:href="#p" />
<use x="1640" y="240" xlink:href="#p" />
<use x="1640" y="400" xlink:href="#p" />
<use x="1640" y="440" xlink:href="#p" />
<use x="1640" y="600" xlink:href="#p" />
<use x="1640" y="640" xlink:href="#p" />
<use x="1640" y="840" xlink:href="#p" />
<use x="1640" y="920" xlink:href="#p" />
<use x="1640" y="1000" xlink:href="#p" />
<use x="1640" y="1160" xlink:href="#p" />
<use x="1640" y="1200" xlink:href="#p" />
<use x="1640" y="1240" xlink:href="#p" />
<use x="1640" y="1280" xlink:href="#p" />
<use x="1640" y="1360" xlink:href="#p" />
<use x="1640" y="1480" xlink:href="#p" />
<use x="1640" y="1520" xlink:href="#p" />
<use x="1640" y="1680" xlink:href="#p" />
<use x="1640" y="1840" xlink:href="#p" />
<use x="1640" y="1880" xlink:href="#p" />
<use x="1640" y="1920" xlink:href="#p" />
<use x="1640" y="2240" xlink:href="#p" />
<use x="1680" y="80" xlink:href="#p" />
<use x="1680" y="120" xlink:href="#p" />
<use x="1680" y="160" xlink:href="#p" />
<use x="1680" y="240" xlink:href="#p" />
<use x="1680" y="320" xlink:href="#p" />
<use x="1680" y="360" xlink:href="#p" />
<use x="1680" y="400" xlink:href="#p" />
<use x="1680" y="440" xlink:href="#p" />
<use x="1680" y="640" xlink:href="#p" />
<use x="1680" y="680" xlink:href="#p" />
<use x="1680" y="760" xlink:href="#p" />
<use x="1680" y="800" xlink:href="#p" />
<use x="1680" y="840" xlink:href="#p" />
<use x="1680" y="880" xlink:href="#p" />
<use x="1680" y="1120" xlink:href="#p" />
<use x="1680" y="1160" xlink:href="#p" />
<use x="1680" y="1240" xlink:href="#p" />
<use x="1680" y="1280" xlink:href="#p" />
<use x="1680" y="1320" xlink:href="#p" />
<use x="1680" y="1360" xlink:href="#p" />
<use x="1680" y="1440" xlink:href="#p" />
<use x="1680" y="1600" xlink:href="#p" />
<use x="1680" y="1640" xlink:href="#p" />
<use x="1680" y="1720" xlink:href="#p" />
<use x="1680" y="1760" xlink:href="#p" />
<use x="1680" y="1800" xlink:href="#p" />
<use x="1680" y="1840" xlink:href="#p" />
<use x="1680" y="1880" xlink:href="#p" />
<use x="1680" y="2080" xlink:href="#p" />
<use x="1680" y="2120" xlink:href="#p" />
<use x="1680" y="2200" xlink:href="#p" />
<use x="1680" y="2280" xlink:href="#p" />
<use x="1680" y="2320" xlink:href="#p" />
<use x="1680" y="2360" xlink:href="#p" />
<use x="1680" y="2400" xlink:href="#p" />
<use x="1720" y="80" xlink:href="#p" />
<use x="1720" y="200" xlink:href="#p" />
<use x="1720" y="240" xlink:href="#p" />
<use x="1720" y="280" xlink:href="#p" />
<use x="1720" y="400" xlink:href="#p" />
<use x="1720" y="440" xlink:href="#p" />
<use x="1720" y="480" xlink:href="#p" />
<use x="1720" y="520" xlink:href="#p" />
<use x="1720" y="560" xlink:href="#p" />
<use x="1720" y="680" xlink:href="#p" />
<use x="1720" y="760" xlink:href="#p" />
<use x="1720" y="1040" xlink:href="#p" />
<use x="1720" y="1200" xlink:href="#p" />
<use x="1720" y="1240" xlink:href="#p" />
<use x="1720" y="1360" xlink:href="#p" />
<use x="1720" y="1400" xlink:href="#p" />
<use x="1720" y="1560" xlink:href="#p" />
<use x="1720" y="1600" xlink:href="#p" />
<use x="1720" y="1640" xlink:href="#p" />
<use x="1720" y="1720" xlink:href="#p" />
<use x="1720" y="1760" xlink:href="#p" />
<use x="1720" y="1880" xlink:href="#p" />
<use x="1720" y="1920" xlink:href="#p" />
<use x="1720" y="2160" xlink:href="#p" />
<use x="1720" y="2320" xlink:href="#p" />
<use x="1720" y="2360" xlink:href="#p" />
<use x="1720" y="2480" xlink:href="#p" />
<use x="1760" y="80" xlink:href="#p" />
<use x="1760" y="120" xlink:href="#p" />
<use x="1760" y="160" xlink:href="#p" />
<use x="1760" y="280" xlink:href="#p" />
<use x="1760" y="320" xlink:href="#p" />
<use x="1760" y="360" xlink:href="#p" />
<use x="1760" y="400" xlink:href="#p" />
<use x="1760" y="440" xlink:href="#p" />
<use x="1760" y="480" xlink:href="#p" />
<use x="1760" y="520" xlink:href="#p" />
<use x="1760" y="560" xlink:href="#p" />
<use x="1760" y="640" xlink:href="#p" />
<use x="1760" y="680" xlink:href="#p" />
<use x="1760" y="720" xlink:href="#p" />
<use x="1760" y="880" xlink:href="#p" />
<use x="1760" y="920" xlink:href="#p" />
<use x="1760" y="960" xlink:href="#p" />
<use x="1760" y="1000" xlink:href="#p" />
<use x="1760" y="1120" xlink:href="#p" />
<use x="1760" y="1160" xlink:href="#p" />
<use x="1760" y="1200" xlink:href="#p" />
<use x="1760" y="1320" xlink:href="#p" />
<use x="1760" y="1360" xlink:href="#p" />
<use x="1760" y="1400" xlink:href="#p" />
<use x="1760" y="1440" xlink:href="#p" />
<use x="1760" y="1520" xlink:href="#p" />
<use x="1760" y="1600" xlink:href="#p" />
<use x="1760" y="1680" xlink:href="#p" />
<use x="1760" y="1800" xlink:href="#p" />
<use x="1760" y="1880" xlink:href="#p" />
<use x="1760" y="1920" xlink:href="#p" />
<use x="1760" y="2080" xlink:href="#p" />
<use x="1760" y="2120" xlink:href="#p" />
<use x="1760" y="2160" xlink:href="#p" />
<use x="1760" y="2360" xlink:href="#p" />
<use x="1760" y="2400" xlink:href="#p" />
<use x="1760" y="2440" xlink:href="#p" />
<use x="1760" y="2480" xlink:href="#p" />
<use x="1800" y="120" xlink:href="#p" />
<use x="1800" y="160" xlink:href="#p" />
<use x="1800" y="200" xlink:href="#p" />
<use x="1800" y="240" xlink:href="#p" />
<use x="1800" y="280" xlink:href="#p" />
<use x="1800" y="480" xlink:href="#p" />
<use x="1800" y="600" xlink:href="#p" />
<use x="1800" y="640" xlink:href="#p" />
<use x="1800" y="800" xlink:href="#p" />
<use x="1800" y="920" xlink:href="#p" />
<use x="1800" y="960" xlink:href="#p" />
<use x="1800" y="1000" xlink:href="#p" />
<use x="1800" y="1040" xlink:href="#p" />
<use x="1800" y="1120" xlink:href="#p" />
<use x="1800" y="1160" xlink:href="#p" />
<use x="1800" y="1280" xlink:href="#p" />
<use x="1800" y="1400" xlink:href="#p" />
<use x="1800" y="1480" xlink:href="#p" />
<use x="1800" y="1520" xlink:href="#p" />
<use x="1800" y="1640" xlink:href="#p" />
<use x="1800" y="1720" xlink:href="#p" />
<use x="1800" y="1760" xlink:href="#p" />
<use x="1800" y="1920" xlink:href="#p" />
<use x="1800" y="1960" xlink:href="#p" />
<use x="1800" y="2000" xlink:href="#p" />
<use x="1800" y="2040" xlink:href="#p" />
<use x="1800" y="2080" xlink:href="#p" />
<use x="1800" y="2240" xlink:href="#p" />
<use x="1800" y="2440" xlink:href="#p" />
<use x="1800" y="2480" xlink:href="#p" />
<use x="1840" y="160" xlink:href="#p" />
<use x="1840" y="240" xlink:href="#p" />
<use x="1840" y="320" xlink:href="#p" />
<use x="1840" y="480" xlink:href="#p" />
<use x="1840" y="520" xlink:href="#p" />
<use x="1840" y="640" xlink:href="#p" />
<use x="1840" y="680" xlink:href="#p" />
<use x="1840" y="720" xlink:href="#p" />
<use x="1840" y="920" xlink:href="#p" />
<use x="1840" y="960" xlink:href="#p" />
<use x="1840" y="1120" xlink:href="#p" />
<use x="1840" y="1160" xlink:href="#p" />
<use x="1840" y="1200" xlink:href="#p" />
<use x="1840" y="1240" xlink:href="#p" />
<use x="1840" y="1280" xlink:href="#p" />
<use x="1840" y="1400" xlink:href="#p" />
<use x="1840" y="1440" xlink:href="#p" />
<use x="1840" y="1480" xlink:href="#p" />
<use x="1840" y="1600" xlink:href="#p" />
<use x="1840" y="1640" xlink:href="#p" />
<use x="1840" y="1680" xlink:href="#p" />
<use x="1840" y="1720" xlink:href="#p" />
<use x="1840" y="1760" xlink:href="#p" />
<use x="1840" y="1880" xlink:href="#p" />
<use x="1840" y="1960" xlink:href="#p" />
<use x="1840" y="2040" xlink:href="#p" />
<use x="1840" y="2080" xlink:href="#p" />
<use x="1840" y="2120" xlink:href="#p" />
<use x="1840" y="2160" xlink:href="#p" />
<use x="1840" y="2200" xlink:href="#p" />
<use x="1840" y="2280" xlink:href="#p" />
<use x="1840" y="2360" xlink:href="#p" />
<use x="1840" y="2440" xlink:href="#p" />
<use x="1880" y="80" xlink:href="#p" />
<use x="1880" y="120" xlink:href="#p" />
<use x="1880" y="160" xlink:href="#p" />
<use x="1880" y="360" xlink:href="#p" />
<use x="1880" y="400" xlink:href="#p" />
<use x="1880" y="440" xlink:href="#p" />
<use x="1880" y="480" xlink:href="#p" />
<use x="1880" y="640" xlink:href="#p" />
<use x="1880" y="680" xlink:href="#p" />
<use x="1880" y="720" xlink:href="#p" />
<use x="1880" y="800" xlink:href="#p" />
<use x="1880" y="840" xlink:href="#p" />
<use x="1880" y="880" xlink:href="#p" />
<use x="1880" y="960" xlink:href="#p" />
<use x="1880" y="1000" xlink:href="#p" />
<use x="1880" y="1080" xlink:href="#p" />
<use x="1880" y="1120" xlink:href="#p" />
<use x="1880" y="1160" xlink:href="#p" />
<use x="1880" y="1200" xlink:href="#p" />
<use x="1880" y="1240" xlink:href="#p" />
<use x="1880" y="1280" xlink:href="#p" />
<use x="1880" y="1320" xlink:href="#p" />
<use x="1880" y="1400" xlink:href="#p" />
<use x="1880" y="1440" xlink:href="#p" />
<use x="1880" y="1480" xlink:href="#p" />
<use x="1880" y="1560" xlink:href="#p" />
<use x="1880" y="1600" xlink:href="#p" />
<use x="1880" y="1720" xlink:href="#p" />
<use x="1880" y="1760" xlink:href="#p" />
<use x="1880" y="1920" xlink:href="#p" />
<use x="1880" y="2000" xlink:href="#p" />
<use x="1880" y="2160" xlink:href="#p" />
<use x="1880" y="2200" xlink:href="#p" />
<use x="1880" y="2280" xlink:href="#p" />
<use x="1880" y="2320" xlink:href="#p" />
<use x="1880" y="2480" xlink:href="#p" />
<use x="1920" y="120" xlink:href="#p" />
<use x="1920" y="200" xlink:href="#p" />
<use x="1920" y="320" xlink:href="#p" />
<use x="1920" y="400" xlink:href="#p" />
<use x="1920" y="480" xlink:href="#p" />
<use x="1920" y="520" xlink:href="#p" />
<use x="1920" y="560" xlink:href="#p" />
<use x="1920" y="720" xlink:href="#p" />
<use x="1920" y="760" xlink:href="#p" />
<use x="1920" y="800" xlink:href="#p" />
<use x="1920" y="840" xlink:href="#p" />
<use x="1920" y="960" xlink:href="#p" />
<use x="1920" y="1160" xlink:href="#p" />
<use x="1920" y="1200" xlink:href="#p" />
<use x="1920" y="1240" xlink:href="#p" />
<use x="1920" y="1320" xlink:href="#p" />
<use x="1920" y="1440" xlink:href="#p" />
<use x="1920" y="1480" xlink:href="#p" />
<use x="1920" y="1520" xlink:href="#p" />
<use x="1920" y="1680" xlink:href="#p" />
<use x="1920" y="1720" xlink:href="#p" />
<use x="1920" y="1760" xlink:href="#p" />
<use x="1920" y="1920" xlink:href="#p" />
<use x="1920" y="1960" xlink:href="#p" />
<use x="1920" y="2080" xlink:href="#p" />
<use x="1920" y="2160" xlink:href="#p" />
<use x="1920" y="2200" xlink:href="#p" />
<use x="1920" y="2240" xlink:href="#p" />
<use x="1920" y="2280" xlink:href="#p" />
<use x="1920" y="2400" xlink:href="#p" />
<use x="1920" y="2440" xlink:href="#p" />
<use x="1920" y="2480" xlink:href="#p" />
<use x="1960" y="120" xlink:href="#p" />
<use x="1960" y="160" xlink:href="#p" />
<use x="1960" y="360" xlink:href="#p" />
<use x="1960" y="400" xlink:href="#p" />
<use x="1960" y="480" xlink:href="#p" />
<use x="1960" y="600" xlink:href="#p" />
<use x="1960" y="680" xlink:href="#p" />
<use x="1960" y="720" xlink:href="#p" />
<use x="1960" y="800" xlink:href="#p" />
<use x="1960" y="960" xlink:href="#p" />
<use x="1960" y="1000" xlink:href="#p" />
<use x="1960" y="1040" xlink:href="#p" />
<use x="1960" y="1160" xlink:href="#p" />
<use x="1960" y="1200" xlink:href="#p" />
<use x="1960" y="1320" xlink:href="#p" />
<use x="1960" y="1360" xlink:href="#p" />
<use x="1960" y="1400" xlink:href="#p" />
<use x="1960" y="1640" xlink:href="#p" />
<use x="1960" y="1760" xlink:href="#p" />
<use x="1960" y="1840" xlink:href="#p" />
<use x="1960" y="2000" xlink:href="#p" />
<use x="1960" y="2160" xlink:href="#p" />
<use x="1960" y="2200" xlink:href="#p" />
<use x="1960" y="2320" xlink:href="#p" />
<use x="1960" y="2360" xlink:href="#p" />
<use x="1960" y="2400" xlink:href="#p" />
<use x="1960" y="2440" xlink:href="#p" />
<use x="1960" y="2480" xlink:href="#p" />
<use x="2000" y="120" xlink:href="#p" />
<use x="2000" y="160" xlink:href="#p" />
<use x="2000" y="200" xlink:href="#p" />
<use x="2000" y="320" xlink:href="#p" />
<use x="2000" y="440" xlink:href="#p" />
<use x="2000" y="520" xlink:href="#p" />
<use x="2000" y="560" xlink:href="#p" />
<use x="2000" y="600" xlink:href="#p" />
<use x="2000" y="640" xlink:href="#p" />
<use x="2000" y="760" xlink:href="#p" />
<use x="2000" y="840" xlink:href="#p" />
<use x="2000" y="920" xlink:href="#p" />
<use x="2000" y="1040" xlink:href="#p" />
<use x="2000" y="1120" xlink:href="#p" />
<use x="2000" y="1280" xlink:href="#p" />
<use x="2000" y="1440" xlink:href="#p" />
<use x="2000" y="1480" xlink:href="#p" />
<use x="2000" y="1520" xlink:href="#p" />
<use x="2000" y="1600" xlink:href="#p" />
<use x="2000" y="1640" xlink:href="#p" />
<use x="2000" y="1760" xlink:href="#p" />
<use x="2000" y="1800" xlink:href="#p" />
<use x="2000" y="1880" xlink:href="#p" />
<use x="2000" y="2000" xlink:href="#p" />
<use x="2000" y="2080" xlink:href="#p" />
<use x="2000" y="2160" xlink:href="#p" />
<use x="2000" y="2200" xlink:href="#p" />
<use x="2000" y="2240" xlink:href="#p" />
<use x="2000" y="2400" xlink:href="#p" />
<use x="2000" y="2440" xlink:href="#p" />
<use x="2000" y="2480" xlink:href="#p" />
<use x="2040" y="120" xlink:href="#p" />
<use x="2040" y="160" xlink:href="#p" />
<use x="2040" y="200" xlink:href="#p" />
<use x="2040" y="240" xlink:href="#p" />
<use x="2040" y="280" xlink:href="#p" />
<use x="2040" y="360" xlink:href="#p" />
<use x="2040" y="400" xlink:href="#p" />
<use x="2040" y="440" xlink:href="#p" />
<use x="2040" y="680" xlink:href="#p" />
<use x="2040" y="920" xlink:href="#p" />
<use x="2040" y="1040" xlink:href="#p" />
<use x="2040" y="1080" xlink:href="#p" />
<use x="2040" y="1320" xlink:href="#p" />
<use x="2040" y="1400" xlink:href="#p" />
<use x="2040" y="1520" xlink:href="#p" />
<use x="2040" y="1560" xlink:href="#p" />
<use x="2040" y="1760" xlink:href="#p" />
<use x="2040" y="1840" xlink:href="#p" />
<use x="2040" y="1880" xlink:href="#p" />
<use x="2040" y="1920" xlink:href="#p" />
<use x="2040" y="2120" xlink:href="#p" />
<use x="2040" y="2360" xlink:href="#p" />
<use x="2080" y="160" xlink:href="#p" />
<use x="2080" y="200" xlink:href="#p" />
<use x="2080" y="240" xlink:href="#p" />
<use x="2080" y="280" xlink:href="#p" />
<use x="2080" y="320" xlink:href="#p" />
<use x="2080" y="360" xlink:href="#p" />
<use x="2080" y="400" xlink:href="#p" />
<use x="2080" y="480" xlink:href="#p" />
<use x="2080" y="520" xlink:href="#p" />
<use x="2080" y="600" xlink:href="#p" />
<use x="2080" y="640" xlink:href="#p" />
<use x="2080" y="720" xlink:href="#p" />
<use x="2080" y="880" xlink:href="#p" />
<use x="2080" y="1080" xlink:href="#p" />
<use x="2080" y="1160" xlink:href="#p" />
<use x="2080" y="1280" xlink:href="#p" />
<use x="2080" y="1320" xlink:href="#p" />
<use x="2080" y="1440" xlink:href="#p" />
<use x="2080" y="1480" xlink:href="#p" />
<use x="2080" y="1520" xlink:href="#p" />
<use x="2080" y="1560" xlink:href="#p" />
<use x="2080" y="1600" xlink:href="#p" />
<use x="2080" y="1960" xlink:href="#p" />
<use x="2080" y="2040" xlink:href="#p" />
<use x="2080" y="2080" xlink:href="#p" />
<use x="2080" y="2200" xlink:href="#p" />
<use x="2080" y="2280" xlink:href="#p" />
<use x="2080" y="2320" xlink:href="#p" />
<use x="2080" y="2400" xlink:href="#p" />
<use x="2120" y="80" xlink:href="#p" />
<use x="2120" y="120" xlink:href="#p" />
<use x="2120" y="160" xlink:href="#p" />
<use x="2120" y="240" xlink:href="#p" />
<use x="2120" y="400" xlink:href="#p" />
<use x="2120" y="560" xlink:href="#p" />
<use x="2120" y="600" xlink:href="#p" />
<use x="2120" y="680" xlink:href="#p" />
<use x="2120" y="720" xlink:href="#p" />
<use x="2120" y="760" xlink:href="#p" />
<use x="2120" y="800" xlink:href="#p" />
<use x="2120" y="920" xlink:href="#p" />
<use x="2120" y="960" xlink:href="#p" />
<use x="2120" y="1040" xlink:href="#p" />
<use x="2120" y="1120" xlink:href="#p" />
<use x="2120" y="1160" xlink:href="#p" />
<use x="2120" y="1200" xlink:href="#p" />
<use x="2120" y="1360" xlink:href="#p" />
<use x="2120" y="1400" xlink:href="#p" />
<use x="2120" y="1520" xlink:href="#p" />
<use x="2120" y="1640" xlink:href="#p" />
<use x="2120" y="1680" xlink:href="#p" />
<use x="2120" y="1720" xlink:href="#p" />
<use x="2120" y="1760" xlink:href="#p" />
<use x="2120" y="1800" xlink:href="#p" />
<use x="2120" y="1880" xlink:href="#p" />
<use x="2120" y="2000" xlink:href="#p" />
<use x="2120" y="2040" xlink:href="#p" />
<use x="2120" y="2080" xlink:href="#p" />
<use x="2120" y="2120" xlink:href="#p" />
<use x="2120" y="2400" xlink:href="#p" />
<use x="2120" y="2440" xlink:href="#p" />
<use x="2160" y="80" xlink:href="#p" />
<use x="2160" y="120" xlink:href="#p" />
<use x="2160" y="160" xlink:href="#p" />
<use x="2160" y="200" xlink:href="#p" />
<use x="2160" y="320" xlink:href="#p" />
<use x="2160" y="400" xlink:href="#p" />
<use x="2160" y="480" xlink:href="#p" />
<use x="2160" y="760" xlink:href="#p" />
<use x="2160" y="800" xlink:href="#p" />
<use x="2160" y="840" xlink:href="#p" />
<use x="2160" y="920" xlink:href="#p" />
<use x="2160" y="960" xlink:href="#p" />
<use x="2160" y="1000" xlink:href="#p" />
<use x="2160" y="1160" xlink:href="#p" />
<use x="2160" y="1200" xlink:href="#p" />
<use x="2160" y="1240" xlink:href="#p" />
<use x="2160" y="1280" xlink:href="#p" />
<use x="2160" y="1320" xlink:href="#p" />
<use x="2160" y="1360" xlink:href="#p" />
<use x="2160" y="1400" xlink:href="#p" />
<use x="2160" y="1480" xlink:href="#p" />
<use x="2160" y="1560" xlink:href="#p" />
<use x="2160" y="1600" xlink:href="#p" />
<use x="2160" y="1640" xlink:href="#p" />
<use x="2160" y="1720" xlink:href="#p" />
<use x="2160" y="1800" xlink:href="#p" />
<use x="2160" y="1880" xlink:href="#p" />
<use x="2160" y="1920" xlink:href="#p" />
<use x="2160" y="2080" xlink:href="#p" />
<use x="2160" y="2120" xlink:href="#p" />
<use x="2160" y="2160" xlink:href="#p" />
<use x="2160" y="2200" xlink:href="#p" />
<use x="2160" y="2240" xlink:href="#p" />
<use x="2160" y="2280" xlink:href="#p" />
<use x="2160" y="2320" xlink:href="#p" />
<use x="2160" y="2360" xlink:href="#p" />
<use x="2160" y="2480" xlink:href="#p" />
<use x="2200" y="400" xlink:href="#p" />
<use x="2200" y="440" xlink:href="#p" />
<use x="2200" y="480" xlink:href="#p" />
<use x="2200" y="520" xlink:href="#p" />
<use x="2200" y="760" xlink:href="#p" />
<use x="2200" y="840" xlink:href="#p" />
<use x="2200" y="920" xlink:href="#p" />
<use x="2200" y="960" xlink:href="#p" />
<use x="2200" y="1040" xlink:href="#p" />
<use x="2200" y="1160" xlink:href="#p" />
<use x="2200" y="1200" xlink:href="#p" />
<use x="2200" y="1360" xlink:href="#p" />
<use x="2200" y="1440" xlink:href="#p" />
<use x="2200" y="1520" xlink:href="#p" />
<use x="2200" y="1680" xlink:href="#p" />
<use x="2200" y="1760" xlink:href="#p" />
<use x="2200" y="1800" xlink:href="#p" />
<use x="2200" y="1880" xlink:href="#p" />
<use x="2200" y="1960" xlink:href="#p" />
<use x="2200" y="2000" xlink:href="#p" />
<use x="2200" y="2040" xlink:href="#p" />
<use x="2200" y="2160" xlink:href="#p" />
<use x="2200" y="2320" xlink:href="#p" />
<use x="2200" y="2360" xlink:href="#p" />
<use x="2200" y="2400" xlink:href="#p" />
<use x="2200" y="2440" xlink:href="#p" />
<use x="2200" y="2480" xlink:href="#p" />
<use x="2240" y="80" xlink:href="#p" />
<use x="2240" y="120" xlink:href="#p" />
<use x="2240" y="160" xlink:href="#p" />
<use x="2240" y="200" xlink:href="#p" />
<use x="2240" y="240" xlink:href="#p" />
<use x="2240" y="280" xlink:href="#p" />
<use x="2240" y="320" xlink:href="#p" />
<use x="2240" y="440" xlink:href="#p" />
<use x="2240" y="560" xlink:href="#p" />
<use x="2240" y="640" xlink:href="#p" />
<use x="2240" y="680" xlink:href="#p" />
<use x="2240" y="720" xlink:href="#p" />
<use x="2240" y="920" xlink:href="#p" />
<use x="2240" y="1160" xlink:href="#p" />
<use x="2240" y="1200" xlink:href="#p" />
<use x="2240" y="1280" xlink:href="#p" />
<use x="2240" y="1360" xlink:href="#p" />
<use x="2240" y="1400" xlink:href="#p" />
<use x="2240" y="1480" xlink:href="#p" />
<use x="2240" y="1560" xlink:href="#p" />
<use x="2240" y="1680" xlink:href="#p" />
<use x="2240" y="1760" xlink:href="#p" />
<use x="2240" y="1800" xlink:href="#p" />
<use x="2240" y="1880" xlink:href="#p" />
<use x="2240" y="2040" xlink:href="#p" />
<use x="2240" y="2120" xlink:href="#p" />
<use x="2240" y="2160" xlink:href="#p" />
<use x="2240" y="2240" xlink:href="#p" />
<use x="2240" y="2320" xlink:href="#p" />
<use x="2240" y="2400" xlink:href="#p" />
<use x="2280" y="80" xlink:href="#p" />
<use x="2280" y="320" xlink:href="#p" />
<use x="2280" y="480" xlink:href="#p" />
<use x="2280" y="520" xlink:href="#p" />
<use x="2280" y="600" xlink:href="#p" />
<use x="2280" y="640" xlink:href="#p" />
<use x="2280" y="720" xlink:href="#p" />
<use x="2280" y="760" xlink:href="#p" />
<use x="2280" y="800" xlink:href="#p" />
<use x="2280" y="840" xlink:href="#p" />
<use x="2280" y="960" xlink:href="#p" />
<use x="2280" y="1040" xlink:href="#p" />
<use x="2280" y="1120" xlink:href="#p" />
<use x="2280" y="1160" xlink:href="#p" />
<use x="2280" y="1200" xlink:href="#p" />
<use x="2280" y="1360" xlink:href="#p" />
<use x="2280" y="1400" xlink:href="#p" />
<use x="2280" y="1600" xlink:href="#p" />
<use x="2280" y="1640" xlink:href="#p" />
<use x="2280" y="2040" xlink:href="#p" />
<use x="2280" y="2160" xlink:href="#p" />
<use x="2280" y="2320" xlink:href="#p" />
<use x="2280" y="2400" xlink:href="#p" />
<use x="2280" y="2480" xlink:href="#p" />
<use x="2320" y="80" xlink:href="#p" />
<use x="2320" y="160" xlink:href="#p" />
<use x="2320" y="200" xlink:href="#p" />
<use x="2320" y="240" xlink:href="#p" />
<use x="2320" y="320" xlink:href="#p" />
<use x="2320" y="400" xlink:href="#p" />
<use x="2320" y="440" xlink:href="#p" />
<use x="2320" y="480" xlink:href="#p" />
<use x="2320" y="520" xlink:href="#p" />
<use x="2320" y="600" xlink:href="#p" />
<use x="2320" y="640" xlink:href="#p" />
<use x="2320" y="680" xlink:href="#p" />
<use x="2320" y="720" xlink:href="#p" />
<use x="2320" y="760" xlink:href="#p" />
<use x="2320" y="800" xlink:href="#p" />
<use x="2320" y="1120" xlink:href="#p" />
<use x="2320" y="1160" xlink:href="#p" />
<use x="2320" y="1200" xlink:href="#p" />
<use x="2320" y="1240" xlink:href="#p" />
<use x="2320" y="1280" xlink:href="#p" />
<use x="2320" y="1320" xlink:href="#p" />
<use x="2320" y="1360" xlink:href="#p" />
<use x="2320" y="1440" xlink:href="#p" />
<use x="2320" y="1520" xlink:href="#p" />
<use x="2320" y="1560" xlink:href="#p" />
<use x="2320" y="1680" xlink:href="#p" />
<use x="2320" y="1800" xlink:href="#p" />
<use x="2320" y="1840" xlink:href="#p" />
<use x="2320" y="1960" xlink:href="#p" />
<use x="2320" y="2000" xlink:href="#p" />
<use x="2320" y="2040" xlink:href="#p" />
<use x="2320" y="2160" xlink:href="#p" />
<use x="2320" y="2200" xlink:href="#p" />
<use x="2320" y="2240" xlink:href="#p" />
<use x="2320" y="2280" xlink:href="#p" />
<use x="2320" y="2320" xlink:href="#p" />
<use x="2320" y="2360" xlink:href="#p" />
<use x="2320" y="2400" xlink:href="#p" />
<use x="2360" y="80" xlink:href="#p" />
<use x="2360" y="160" xlink:href="#p" />
<use x="2360" y="200" xlink:href="#p" />
<use x="2360" y="240" xlink:href="#p" />
<use x="2360" y="320" xlink:href="#p" />
<use x="2360" y="400" xlink:href="#p" />
<use x="2360" y="520" xlink:href="#p" />
<use x="2360" y="560" xlink:href="#p" />
<use x="2360" y="640" xlink:href="#p" />
<use x="2360" y="760" xlink:href="#p" />
<use x="2360" y="840" xlink:href="#p" />
<use x="2360" y="960" xlink:href="#p" />
<use x="2360" y="1000" xlink:href="#p" />
<use x="2360" y="1040" xlink:href="#p" />
<use x="2360" y="1120" xlink:href="#p" />
<use x="2360" y="1240" xlink:href="#p" />
<use x="2360" y="1280" xlink:href="#p" />
<use x="2360" y="1320" xlink:href="#p" />
<use x="2360" y="1400" xlink:href="#p" />
<use x="2360" y="1440" xlink:href="#p" />
<use x="2360" y="1480" xlink:href="#p" />
<use x="2360" y="1520" xlink:href="#p" />
<use x="2360" y="1560" xlink:href="#p" />
<use x="2360" y="1600" xlink:href="#p" />
<use x="2360" y="1720" xlink:href="#p" />
<use x="2360" y="1800" xlink:href="#p" />
<use x="2360" y="1880" xlink:href="#p" />
<use x="2360" y="1920" xlink:href="#p" />
<use x="2360" y="1960" xlink:href="#p" />
<use x="2360" y="2000" xlink:href="#p" />
<use x="2360" y="2040" xlink:href="#p" />
<use x="2360" y="2280" xlink:href="#p" />
<use x="2360" y="2480" xlink:href="#p" />
<use x="2400" y="80" xlink:href="#p" />
<use x="2400" y="160" xlink:href="#p" />
<use x="2400" y="200" xlink:href="#p" />
<use x="2400" y="240" xlink:href="#p" />
<use x="2400" y="320" xlink:href="#p" />
<use x="2400" y="400" xlink:href="#p" />
<use x="2400" y="480" xlink:href="#p" />
<use x="2400" y="520" xlink:href="#p" />
<use x="2400" y="560" xlink:href="#p" />
<use x="2400" y="600" xlink:href="#p" />
<use x="2400" y="640" xlink:href="#p" />
<use x="2400" y="720" xlink:href="#p" />
<use x="2400" y="1000" xlink:href="#p" />
<use x="2400" y="1080" xlink:href="#p" />
<use x="2400" y="1120" xlink:href="#p" />
<use x="2400" y="1200" xlink:href="#p" />
<use x="2400" y="1240" xlink:href="#p" />
<use x="2400" y="1280" xlink:href="#p" />
<use x="2400" y="1400" xlink:href="#p" />
<use x="2400" y="1480" xlink:href="#p" />
<use x="2400" y="1520" xlink:href="#p" />
<use x="2400" y="1720" xlink:href="#p" />
<use x="2400" y="1880" xlink:href="#p" />
<use x="2400" y="1960" xlink:href="#p" />
<use x="2400" y="2000" xlink:href="#p" />
<use x="2400" y="2040" xlink:href="#p" />
<use x="2400" y="2080" xlink:href="#p" />
<use x="2400" y="2160" xlink:href="#p" />
<use x="2400" y="2320" xlink:href="#p" />
<use x="2400" y="2440" xlink:href="#p" />
<use x="2400" y="2480" xlink:href="#p" />
<use x="2440" y="80" xlink:href="#p" />
<use x="2440" y="320" xlink:href="#p" />
<use x="2440" y="600" xlink:href="#p" />
<use x="2440" y="640" xlink:href="#p" />
<use x="2440" y="680" xlink:href="#p" />
<use x="2440" y="720" xlink:href="#p" />
<use x="2440" y="800" xlink:href="#p" />
<use x="2440" y="840" xlink:href="#p" />
<use x="2440" y="880" xlink:href="#p" />
<use x="2440" y="1000" xlink:href="#p" />
<use x="2440" y="1080" xlink:href="#p" />
<use x="2440" y="1120" xlink:href="#p" />
<use x="2440" y="1160" xlink:href="#p" />
<use x="2440" y="1240" xlink:href="#p" />
<use x="2440" y="1560" xlink:href="#p" />
<use x="2440" y="1600" xlink:href="#p" />
<use x="2440" y="1880" xlink:href="#p" />
<use x="2440" y="1920" xlink:href="#p" />
<use x="2440" y="2040" xlink:href="#p" />
<use x="2440" y="2080" xlink:href="#p" />
<use x="2440" y="2120" xlink:href="#p" />
<use x="2440" y="2240" xlink:href="#p" />
<use x="2440" y="2280" xlink:href="#p" />
<use x="2440" y="2400" xlink:href="#p" />
<use x="2440" y="2480" xlink:href="#p" />
<use x="2480" y="80" xlink:href="#p" />
<use x="2480" y="120" xlink:href="#p" />
<use x="2480" y="160" xlink:href="#p" />
<use x="2480" y="200" xlink:href="#p" />
<use x="2480" y="240" xlink:href="#p" />
<use x="2480" y="280" xlink:href="#p" />
<use x="2480" y="320" xlink:href="#p" />
<use x="2480" y="400" xlink:href="#p" />
<use x="2480" y="440" xlink:href="#p" />
<use x="2480" y="520" xlink:href="#p" />
<use x="2480" y="560" xlink:href="#p" />
<use x="2480" y="720" xlink:href="#p" />
<use x="2480" y="760" xlink:href="#p" />
<use x="2480" y="800" xlink:href="#p" />
<use x="2480" y="880" xlink:href="#p" />
<use x="2480" y="1160" xlink:href="#p" />
<use x="2480" y="1200" xlink:href="#p" />
<use x="2480" y="1240" xlink:href="#p" />
<use x="2480" y="1280" xlink:href="#p" />
<use x="2480" y="1320" xlink:href="#p" />
<use x="2480" y="1360" xlink:href="#p" />
<use x="2480" y="1480" xlink:href="#p" />
<use x="2480" y="1520" xlink:href="#p" />
<use x="2480" y="1560" xlink:href="#p" />
<use x="2480" y="1640" xlink:href="#p" />
<use x="2480" y="1680" xlink:href="#p" />
<use x="2480" y="1720" xlink:href="#p" />
<use x="2480" y="1760" xlink:href="#p" />
<use x="2480" y="1960" xlink:href="#p" />
<use x="2480" y="2040" xlink:href="#p" />
<use x="2480" y="2120" xlink:href="#p" />
<use x="2480" y="2160" xlink:href="#p" />
<use x="2480" y="2200" xlink:href="#p" />
<use x="2480" y="2240" xlink:href="#p" />
<use x="2480" y="2280" xlink:href="#p" />
<use x="2480" y="2360" xlink:href="#p" />
<use x="2480" y="2480" xlink:href="#p" />
</g>

</svg>