55e8
%!PS-Adobe EPSF-3.0
%%Creator: Zend_Matrixcode_Qrcode
%%Title: QRcode
%%CreationDate: 2014-03-14
%%DocumentData: Clean7Bit
%%LanguageLevel: 2
%%Pages: 1
%%BoundingBox: 0 0 650 650
10 10 scale
2 2 translate
/F { rectfill } def
0.2 0.2 0 setrgbcolor
0 60 1 1 F
0 59 1 1 F
0 58 1 1 F
0 57 1 1 F
0 56 1 1 F
0 55 1 1 F
0 54 1 1 F
0 52 1 1 F
0 51 1 1 F
0 49 1 1 F
0 48 1 1 F
0 47 1 1 F
0 46 1 1 F
0 44 1 1 F
0 43 1 1 F
0 42 1 1 F
0 41 1 1 F
0 40 1 1 F
0 39 1 1 F
0 37 1 1 F
0 36 1 1 F
0 34 1 1 F
0 32 1 1 F
0 30 1 1 F
0 28 1 1 F
0 27 1 1 F
0 26 1 1 F
0 25 1 1 F
0 24 1 1 F
0 23 1 1 F
0 21 1 1 F
0 19 1 1 F
0 16 1 1 F
0 15 1 1 F
0 14 1 1 F
0 13 1 1 F
0 11 1 1 F
0 9 1 1 F
0 8 1 1 F
0 6 1 1 F
0 5 1 1 F
0 4 1 1 F
0 3 1 1 F
0 2 1 1 F
0 1 1 1 F
0 0 1 1 F
1 60 1 1 F
1 54 1 1 F
1 52 1 1 F
1 43 1 1 F
1 41 1 1 F
1 40 1 1 F
1 38 1 1 F
1 37 1 1 F
1 36 1 1 F
1 34 1 1 F
1 33 1 1 F
1 30 1 1 F
1 28 1 1 F
1 26 1 1 F
1 25 1 1 F
1 24 1 1 F
1 23 1 1 F
1 20 1 1 F
1 18 1 1 F
1 17 1 1 F
1 15 1 1 F
1 14 1 1 F
1 12 1 1 F
1 9 1 1 F
1 8 1 1 F
1 6 1 1 F
1 0 1 1 F
2 60 1 1 F
2 58 1 1 F
2 57 1 1 F
2 56 1 1 F
2 54 1 1 F
2 52 1 1 F
2 51 1 1 F
2 50 1 1 F
2 45 1 1 F
2 43 1 1 F
2 42 1 1 F
2 39 1 1 F
2 38 1 1 F
2 37 1 1 F
2 36 1 1 F
2 33 1 1 F
2 31 1 1 F
2 30 1 1 F
2 29 1 1 F
2 28 1 1 F
2 26 1 1 F
2 25 1 1 F
2 24 1 1 F
2 22 1 1 F
2 20 1 1 F
2 18 1 1 F
2 16 1 1 F
2 15 1 1 F
2 14 1 1 F
2 10 1 1 F
2 9 1 1 F
2 8 1 1 F
2 6 1 1 F
2 4 1 1 F
2 3 1 1 F
2 2 1 1 F
2 0 1 1 F
3 60 1 1 F
3 58 1 1 F
3 57 1 1 F
3 56 1 1 F
3 54 1 1 F
3 52 1 1 F
3 49 1 1 F
3 48 1 1 F
3 47 1 1 F
3 46 1 1 F
3 44 1 1 F
3 43 1 1 F
3 40 1 1 F
3 39 1 1 F
3 37 1 1 F
3 36 1 1 F
3 31 1 1 F
3 30 1 1 F
3 29 1 1 F
3 28 1 1 F
3 26 1 1 F
3 22 1 1 F
3 21 1 1 F
3 20 1 1 F
3 18 1 1 F
3 17 1 1 F
3 16 1 1 F
3 14 1 1 F
3 13 1 1 F
3 12 1 1 F
3 10 1 1 F
3 8 1 1 F
3 6 1 1 F
3 4 1 1 F
3 3 1 1 F
3 2 1 1 F
3 0 1 1 F
4 60 1 1 F
4 58 1 1 F
4 57 1 1 F
4 56 1 1 F
4 54 1 1 F
4 51 1 1 F
4 50 1 1 F
4 48 1 1 F
4 47 1 1 F
4 45 1 1 F
4 39 1 1 F
4 37 1 1 F
4 33 1 1 F
4 32 1 1 F
4 31 1 1 F
4 30 1 1 F
4 29 1 1 F
4 28 1 1 F
4 27 1 1 F
4 26 1 1 F
4 20 1 1 F
4 19 1 1 F
4 17 1 1 F
4 14 1 1 F
4 11 1 1 F
4 10 1 1 F
4 9 1 1 F
4 6 1 1 F
4 4 1 1 F
4 3 1 1 F
4 2 1 1 F
4 0 1 1 F
5 60 1 1 F
5 54 1 1 F
5 51 1 1 F
5 50 1 1 F
5 49 1 1 F
5 48 1 1 F
5 46 1 1 F
5 45 1 1 F
5 44 1 1 F
5 43 1 1 F
5 42 1 1 F
5 40 1 1 F
5 38 1 1 F
5 37 1 1 F
5 36 1 1 F
5 33 1 1 F
5 32 1 1 F
5 28 1 1 F
5 27 1 1 F
5 23 1 1 F
5 21 1 1 F
5 17 1 1 F
5 16 1 1 F
5 11 1 1 F
5 10 1 1 F
5 6 1 1 F
5 0 1 1 F
6 60 1 1 F
6 59 1 1 F
6 58 1 1 F
6 57 1 1 F
6 56 1 1 F
6 55 1 1 F
6 54 1 1 F
6 52 1 1 F
6 50 1 1 F
6 48 1 1 F
6 46 1 1 F
6 44 1 1 F
6 42 1 1 F
6 40 1 1 F
6 38 1 1 F
6 36 1 1 F
6 34 1 1 F
6 32 1 1 F
6 30 1 1 F
6 28 1 1 F
6 26 1 1 F
6 24 1 1 F
6 22 1 1 F
6 20 1 1 F
6 18 1 1 F
6 16 1 1 F
6 14 1 1 F
6 12 1 1 F
6 10 1 1 F
6 8 1 1 F
6 6 1 1 F
6 5 1 1 F
6 4 1 1 F
6 3 1 1 F
6 2 1 1 F
6 1 1 1 F
6 0 1 1 F
7 50 1 1 F
7 47 1 1 F
7 43 1 1 F
7 42 1 1 F
7 41 1 1 F
7 40 1 1 F
7 39 1 1 F
7 38 1 1 F
7 36 1 1 F
7 34 1 1 F
7 32 1 1 F
7 28 1 1 F
7 26 1 1 F
7 25 1 1 F
7 24 1 1 F
7 21 1 1 F
7 20 1 1 F
7 19 1 1 F
7 18 1 1 F
7 17 1 1 F
7 16 1 1 F
7 9 1 1 F
8 60 1 1 F
8 58 1 1 F
8 57 1 1 F
8 56 1 1 F
8 54 1 1 F
8 52 1 1 F
8 50 1 1 F
8 49 1 1 F
8 48 1 1 F
8 46 1 1 F
8 45 1 1 F
8 44 1 1 F
8 43 1 1 F
8 42 1 1 F
8 41 1 1 F
8 40 1 1 F
8 37 1 1 F
8 32 1 1 F
8 31 1 1 F
8 30 1 1 F
8 29 1 1 F
8 28 1 1 F
8 27 1 1 F
8 24 1 1 F
8 23 1 1 F
8 22 1 1 F
8 19 1 1 F
8 17 1 1 F
8 16 1 1 F
8 15 1 1 F
8 14 1 1 F
8 13 1 1 F
8 12 1 1 F
8 10 1 1 F
8 9 1 1 F
8 7 1 1 F
8 3 1 1 F
8 2 1 1 F
8 1 1 1 F
8 0 1 1 F
9 60 1 1 F
9 55 1 1 F
9 52 1 1 F
9 49 1 1 F
9 46 1 1 F
9 44 1 1 F
9 43 1 1 F
9 42 1 1 F
9 41 1 1 F
9 39 1 1 F
9 38 1 1 F
9 31 1 1 F
9 27 1 1 F
9 26 1 1 F
9 23 1 1 F
9 21 1 1 F
9 19 1 1 F
9 18 1 1 F
9 15 1 1 F
9 14 1 1 F
9 12 1 1 F
9 11 1 1 F
9 10 1 1 F
9 9 1 1 F
9 8 1 1 F
9 7 1 1 F
9 4 1 1 F
9 1 1 1 F
10 59 1 1 F
10 58 1 1 F
10 56 1 1 F
10 54 1 1 F
10 51 1 1 F
10 46 1 1 F
10 45 1 1 F
10 43 1 1 F
10 40 1 1 F
10 39 1 1 F
10 38 1 1 F
10 33 1 1 F
10 31 1 1 F
10 29 1 1 F
10 26 1 1 F
10 25 1 1 F
10 24 1 1 F
10 23 1 1 F
10 22 1 1 F
10 16 1 1 F
10 15 1 1 F
10 13 1 1 F
10 11 1 1 F
10 8 1 1 F
10 1 1 1 F
11 58 1 1 F
11 50 1 1 F
11 48 1 1 F
11 47 1 1 F
11 45 1 1 F
11 44 1 1 F
11 42 1 1 F
11 40 1 1 F
11 39 1 1 F
11 36 1 1 F
11 35 1 1 F
11 33 1 1 F
11 32 1 1 F
11 31 1 1 F
11 30 1 1 F
11 28 1 1 F
11 24 1 1 F
11 23 1 1 F
11 21 1 1 F
11 20 1 1 F
11 18 1 1 F
11 17 1 1 F
11 14 1 1 F
11 10 1 1 F
11 9 1 1 F
11 4 1 1 F
11 2 1 1 F
12 60 1 1 F
12 59 1 1 F
12 57 1 1 F
12 56 1 1 F
12 54 1 1 F
12 53 1 1 F
12 52 1 1 F
12 51 1 1 F
12 50 1 1 F
12 49 1 1 F
12 48 1 1 F
12 47 1 1 F
12 46 1 1 F
12 44 1 1 F
12 43 1 1 F
12 42 1 1 F
12 41 1 1 F
12 39 1 1 F
12 37 1 1 F
12 36 1 1 F
12 34 1 1 F
12 33 1 1 F
12 31 1 1 F
12 29 1 1 F
12 28 1 1 F
12 27 1 1 F
12 25 1 1 F
12 24 1 1 F
12 22 1 1 F
12 21 1 1 F
12 20 1 1 F
12 19 1 1 F
12 16 1 1 F
12 15 1 1 F
12 13 1 1 F
12 12 1 1 F
12 11 1 1 F
12 10 1 1 F
12 5 1 1 F
12 4 1 1 F
12 3 1 1 F
12 2 1 1 F
12 0 1 1 F
13 59 1 1 F
13 57 1 1 F
13 55 1 1 F
13 53 1 1 F
13 50 1 1 F
13 49 1 1 F
13 47 1 1 F
13 46 1 1 F
13 45 1 1 F
13 41 1 1 F
13 40 1 1 F
13 39 1 1 F
13 38 1 1 F
13 37 1 1 F
13 33 1 1 F
13 32 1 1 F
13 30 1 1 F
13 29 1 1 F
13 28 1 1 F
13 27 1 1 F
13 25 1 1 F
13 20 1 1 F
13 19 1 1 F
13 17 1 1 F
13 14 1 1 F
13 13 1 1 F
13 12 1 1 F
13 10 1 1 F
13 8 1 1 F
13 7 1 1 F
13 4 1 1 F
13 3 1 1 F
13 0 1 1 F
14 54 1 1 F
14 53 1 1 F
14 51 1 1 F
14 44 1 1 F
14 42 1 1 F
14 41 1 1 F
14 37 1 1 F
14 36 1 1 F
14 33 1 1 F
14 28 1 1 F
14 26 1 1 F
14 23 1 1 F
14 22 1 1 F
14 21 1 1 F
14 20 1 1 F
14 17 1 1 F
14 14 1 1 F
14 12 1 1 F
14 9 1 1 F
14 8 1 1 F
14 7 1 1 F
14 6 1 1 F
14 5 1 1 F
14 3 1 1 F
14 2 1 1 F
14 1 1 1 F
15 58 1 1 F
15 57 1 1 F
15 56 1 1 F
15 55 1 1 F
15 53 1 1 F
15 50 1 1 F
15 49 1 1 F
15 48 1 1 F
15 47 1 1 F
15 46 1 1 F
15 45 1 1 F
15 44 1 1 F
15 38 1 1 F
15 36 1 1 F
15 35 1 1 F
15 33 1 1 F
15 31 1 1 F
15 29 1 1 F
15 25 1 1 F
15 24 1 1 F
15 23 1 1 F
15 21 1 1 F
15 19 1 1 F
15 18 1 1 F
15 17 1 1 F
15 10 1 1 F
15 9 1 1 F
15 8 1 1 F
15 7 1 1 F
15 2 1 1 F
16 60 1 1 F
16 59 1 1 F
16 57 1 1 F
16 55 1 1 F
16 54 1 1 F
16 50 1 1 F
16 49 1 1 F
16 48 1 1 F
16 46 1 1 F
16 43 1 1 F
16 38 1 1 F
16 37 1 1 F
16 36 1 1 F
16 34 1 1 F
16 32 1 1 F
16 31 1 1 F
16 30 1 1 F
16 28 1 1 F
16 27 1 1 F
16 26 1 1 F
16 24 1 1 F
16 19 1 1 F
16 17 1 1 F
16 16 1 1 F
16 14 1 1 F
16 10 1 1 F
16 8 1 1 F
16 7 1 1 F
16 0 1 1 F
17 59 1 1 F
17 58 1 1 F
17 57 1 1 F
17 56 1 1 F
17 51 1 1 F
17 50 1 1 F
17 48 1 1 F
17 47 1 1 F
17 46 1 1 F
17 45 1 1 F
17 43 1 1 F
17 42 1 1 F
17 41 1 1 F
17 36 1 1 F
17 35 1 1 F
17 34 1 1 F
17 33 1 1 F
17 31 1 1 F
17 30 1 1 F
17 28 1 1 F
17 27 1 1 F
17 24 1 1 F
17 21 1 1 F
17 20 1 1 F
17 19 1 1 F
17 17 1 1 F
17 16 1 1 F
17 14 1 1 F
17 12 1 1 F
17 11 1 1 F
17 6 1 1 F
17 5 1 1 F
17 4 1 1 F
17 1 1 1 F
18 57 1 1 F
18 56 1 1 F
18 54 1 1 F
18 51 1 1 F
18 50 1 1 F
18 49 1 1 F
18 48 1 1 F
18 46 1 1 F
18 43 1 1 F
18 38 1 1 F
18 37 1 1 F
18 34 1 1 F
18 30 1 1 F
18 26 1 1 F
18 24 1 1 F
18 23 1 1 F
18 21 1 1 F
18 18 1 1 F
18 17 1 1 F
18 15 1 1 F
18 12 1 1 F
18 11 1 1 F
18 9 1 1 F
18 7 1 1 F
18 5 1 1 F
18 4 1 1 F
18 3 1 1 F
18 1 1 1 F
18 0 1 1 F
19 60 1 1 F
19 59 1 1 F
19 58 1 1 F
19 53 1 1 F
19 52 1 1 F
19 51 1 1 F
19 47 1 1 F
19 46 1 1 F
19 45 1 1 F
19 42 1 1 F
19 41 1 1 F
19 40 1 1 F
19 39 1 1 F
19 38 1 1 F
19 37 1 1 F
19 36 1 1 F
19 32 1 1 F
19 30 1 1 F
19 28 1 1 F
19 27 1 1 F
19 23 1 1 F
19 17 1 1 F
19 15 1 1 F
19 14 1 1 F
19 11 1 1 F
19 10 1 1 F
19 9 1 1 F
19 2 1 1 F
19 1 1 1 F
20 58 1 1 F
20 56 1 1 F
20 55 1 1 F
20 54 1 1 F
20 51 1 1 F
20 49 1 1 F
20 48 1 1 F
20 47 1 1 F
20 42 1 1 F
20 38 1 1 F
20 37 1 1 F
20 35 1 1 F
20 30 1 1 F
20 29 1 1 F
20 28 1 1 F
20 26 1 1 F
20 23 1 1 F
20 22 1 1 F
20 20 1 1 F
20 19 1 1 F
20 18 1 1 F
20 16 1 1 F
20 13 1 1 F
20 12 1 1 F
20 11 1 1 F
20 10 1 1 F
20 9 1 1 F
20 8 1 1 F
20 6 1 1 F
20 2 1 1 F
20 0 1 1 F
21 58 1 1 F
21 56 1 1 F
21 52 1 1 F
21 51 1 1 F
21 50 1 1 F
21 46 1 1 F
21 45 1 1 F
21 44 1 1 F
21 40 1 1 F
21 39 1 1 F
21 37 1 1 F
21 35 1 1 F
21 34 1 1 F
21 33 1 1 F
21 30 1 1 F
21 29 1 1 F
21 26 1 1 F
21 21 1 1 F
21 20 1 1 F
21 16 1 1 F
21 14 1 1 F
21 10 1 1 F
21 7 1 1 F
21 6 1 1 F
21 5 1 1 F
21 3 1 1 F
22 59 1 1 F
22 58 1 1 F
22 54 1 1 F
22 53 1 1 F
22 52 1 1 F
22 51 1 1 F
22 49 1 1 F
22 47 1 1 F
22 45 1 1 F
22 44 1 1 F
22 43 1 1 F
22 40 1 1 F
22 38 1 1 F
22 37 1 1 F
22 35 1 1 F
22 28 1 1 F
22 26 1 1 F
22 25 1 1 F
22 22 1 1 F
22 21 1 1 F
22 18 1 1 F
22 16 1 1 F
22 15 1 1 F
22 14 1 1 F
22 12 1 1 F
22 10 1 1 F
22 6 1 1 F
22 4 1 1 F
22 3 1 1 F
22 1 1 1 F
23 57 1 1 F
23 51 1 1 F
23 50 1 1 F
23 45 1 1 F
23 44 1 1 F
23 43 1 1 F
23 39 1 1 F
23 36 1 1 F
23 35 1 1 F
23 33 1 1 F
23 31 1 1 F
23 29 1 1 F
23 28 1 1 F
23 22 1 1 F
23 21 1 1 F
23 19 1 1 F
23 18 1 1 F
23 14 1 1 F
23 13 1 1 F
23 9 1 1 F
23 6 1 1 F
23 3 1 1 F
23 2 1 1 F
23 1 1 1 F
24 60 1 1 F
24 55 1 1 F
24 54 1 1 F
24 53 1 1 F
24 52 1 1 F
24 51 1 1 F
24 50 1 1 F
24 49 1 1 F
24 48 1 1 F
24 45 1 1 F
24 43 1 1 F
24 41 1 1 F
24 40 1 1 F
24 39 1 1 F
24 37 1 1 F
24 33 1 1 F
24 29 1 1 F
24 27 1 1 F
24 18 1 1 F
24 15 1 1 F
24 13 1 1 F
24 12 1 1 F
24 11 1 1 F
24 10 1 1 F
24 8 1 1 F
24 6 1 1 F
24 3 1 1 F
24 2 1 1 F
24 1 1 1 F
25 60 1 1 F
25 57 1 1 F
25 56 1 1 F
25 55 1 1 F
25 53 1 1 F
25 50 1 1 F
25 48 1 1 F
25 47 1 1 F
25 44 1 1 F
25 43 1 1 F
25 42 1 1 F
25 39 1 1 F
25 36 1 1 F
25 35 1 1 F
25 33 1 1 F
25 32 1 1 F
25 30 1 1 F
25 29 1 1 F
25 27 1 1 F
25 24 1 1 F
25 23 1 1 F
25 22 1 1 F
25 20 1 1 F
25 19 1 1 F
25 13 1 1 F
25 12 1 1 F
25 10 1 1 F
25 8 1 1 F
25 7 1 1 F
25 6 1 1 F
25 4 1 1 F
25 0 1 1 F
26 58 1 1 F
26 56 1 1 F
26 54 1 1 F
26 49 1 1 F
26 44 1 1 F
26 41 1 1 F
26 38 1 1 F
26 35 1 1 F
26 32 1 1 F
26 31 1 1 F
26 29 1 1 F
26 23 1 1 F
26 21 1 1 F
26 20 1 1 F
26 17 1 1 F
26 15 1 1 F
26 14 1 1 F
26 13 1 1 F
26 11 1 1 F
26 8 1 1 F
26 5 1 1 F
27 58 1 1 F
27 57 1 1 F
27 56 1 1 F
27 53 1 1 F
27 52 1 1 F
27 51 1 1 F
27 49 1 1 F
27 48 1 1 F
27 47 1 1 F
27 46 1 1 F
27 45 1 1 F
27 42 1 1 F
27 41 1 1 F
27 40 1 1 F
27 39 1 1 F
27 37 1 1 F
27 35 1 1 F
27 34 1 1 F
27 31 1 1 F
27 30 1 1 F
27 29 1 1 F
27 28 1 1 F
27 27 1 1 F
27 24 1 1 F
27 21 1 1 F
27 20 1 1 F
27 19 1 1 F
27 18 1 1 F
27 12 1 1 F
27 9 1 1 F
27 7 1 1 F
27 2 1 1 F
28 59 1 1 F
28 57 1 1 F
28 56 1 1 F
28 55 1 1 F
28 54 1 1 F
28 53 1 1 F
28 52 1 1 F
28 51 1 1 F
28 49 1 1 F
28 48 1 1 F
28 44 1 1 F
28 43 1 1 F
28 40 1 1 F
28 39 1 1 F
28 38 1 1 F
28 37 1 1 F
28 36 1 1 F
28 35 1 1 F
28 34 1 1 F
28 32 1 1 F
28 31 1 1 F
28 30 1 1 F
28 29 1 1 F
28 28 1 1 F
28 27 1 1 F
28 23 1 1 F
28 21 1 1 F
28 17 1 1 F
28 11 1 1 F
28 8 1 1 F
28 7 1 1 F
28 6 1 1 F
28 5 1 1 F
28 4 1 1 F
28 1 1 1 F
29 60 1 1 F
29 59 1 1 F
29 58 1 1 F
29 57 1 1 F
29 56 1 1 F
29 52 1 1 F
29 50 1 1 F
29 48 1 1 F
29 47 1 1 F
29 45 1 1 F
29 44 1 1 F
29 42 1 1 F
29 41 1 1 F
29 37 1 1 F
29 36 1 1 F
29 35 1 1 F
29 34 1 1 F
29 32 1 1 F
29 28 1 1 F
29 25 1 1 F
29 24 1 1 F
29 23 1 1 F
29 22 1 1 F
29 21 1 1 F
29 20 1 1 F
29 17 1 1 F
29 16 1 1 F
29 14 1 1 F
29 12 1 1 F
29 11 1 1 F
29 10 1 1 F
29 8 1 1 F
29 4 1 1 F
29 3 1 1 F
29 2 1 1 F
30 60 1 1 F
30 57 1 1 F
30 56 1 1 F
30 54 1 1 F
30 52 1 1 F
30 51 1 1 F
30 47 1 1 F
30 46 1 1 F
30 45 1 1 F
30 41 1 1 F
30 40 1 1 F
30 36 1 1 F
30 35 1 1 F
30 33 1 1 F
30 32 1 1 F
30 30 1 1 F
30 28 1 1 F
30 27 1 1 F
30 24 1 1 F
30 22 1 1 F
30 21 1 1 F
30 19 1 1 F
30 18 1 1 F
30 15 1 1 F
30 14 1 1 F
30 13 1 1 F
30 12 1 1 F
30 10 1 1 F
30 8 1 1 F
30 6 1 1 F
30 4 1 1 F
30 3 1 1 F
30 0 1 1 F
31 59 1 1 F
31 56 1 1 F
31 52 1 1 F
31 47 1 1 F
31 46 1 1 F
31 45 1 1 F
31 42 1 1 F
31 41 1 1 F
31 40 1 1 F
31 39 1 1 F
31 36 1 1 F
31 33 1 1 F
31 32 1 1 F
31 28 1 1 F
31 26 1 1 F
31 25 1 1 F
31 17 1 1 F
31 11 1 1 F
31 8 1 1 F
31 4 1 1 F
31 3 1 1 F
31 1 1 1 F
31 0 1 1 F
32 57 1 1 F
32 56 1 1 F
32 55 1 1 F
32 54 1 1 F
32 53 1 1 F
32 52 1 1 F
32 50 1 1 F
32 49 1 1 F
32 40 1 1 F
32 32 1 1 F
32 31 1 1 F
32 30 1 1 F
32 29 1 1 F
32 28 1 1 F
32 27 1 1 F
32 24 1 1 F
32 23 1 1 F
32 22 1 1 F
32 20 1 1 F
32 19 1 1 F
32 15 1 1 F
32 10 1 1 F
32 8 1 1 F
32 7 1 1 F
32 6 1 1 F
32 5 1 1 F
32 4 1 1 F
32 2 1 1 F
33 60 1 1 F
33 59 1 1 F
33 58 1 1 F
33 56 1 1 F
33 55 1 1 F
33 53 1 1 F
33 49 1 1 F
33 47 1 1 F
33 45 1 1 F
33 38 1 1 F
33 37 1 1 F
33 36 1 1 F
33 34 1 1 F
33 32 1 1 F
33 31 1 1 F
33 30 1 1 F
33 29 1 1 F
33 28 1 1 F
33 27 1 1 F
33 26 1 1 F
33 25 1 1 F
33 23 1 1 F
33 21 1 1 F
33 19 1 1 F
33 18 1 1 F
33 16 1 1 F
33 12 1 1 F
33 10 1 1 F
33 9 1 1 F
33 7 1 1 F
33 6 1 1 F
34 59 1 1 F
34 58 1 1 F
34 54 1 1 F
34 49 1 1 F
34 46 1 1 F
34 43 1 1 F
34 42 1 1 F
34 40 1 1 F
34 38 1 1 F
34 36 1 1 F
34 33 1 1 F
34 31 1 1 F
34 28 1 1 F
34 26 1 1 F
34 25 1 1 F
34 21 1 1 F
34 20 1 1 F
34 19 1 1 F
34 16 1 1 F
34 13 1 1 F
34 12 1 1 F
34 8 1 1 F
34 7 1 1 F
34 6 1 1 F
34 5 1 1 F
34 2 1 1 F
35 57 1 1 F
35 56 1 1 F
35 53 1 1 F
35 52 1 1 F
35 50 1 1 F
35 48 1 1 F
35 47 1 1 F
35 45 1 1 F
35 44 1 1 F
35 41 1 1 F
35 39 1 1 F
35 38 1 1 F
35 34 1 1 F
35 33 1 1 F
35 26 1 1 F
35 24 1 1 F
35 22 1 1 F
35 20 1 1 F
35 19 1 1 F
35 17 1 1 F
35 14 1 1 F
35 13 1 1 F
35 11 1 1 F
35 10 1 1 F
35 9 1 1 F
35 6 1 1 F
35 5 1 1 F
35 4 1 1 F
35 3 1 1 F
35 2 1 1 F
35 0 1 1 F
36 57 1 1 F
36 56 1 1 F
36 55 1 1 F
36 54 1 1 F
36 50 1 1 F
36 49 1 1 F
36 48 1 1 F
36 47 1 1 F
36 42 1 1 F
36 38 1 1 F
36 36 1 1 F
36 34 1 1 F
36 33 1 1 F
36 30 1 1 F
36 29 1 1 F
36 25 1 1 F
36 24 1 1 F
36 20 1 1 F
36 19 1 1 F
36 18 1 1 F
36 17 1 1 F
36 15 1 1 F
36 14 1 1 F
36 13 1 1 F
36 12 1 1 F
36 7 1 1 F
36 4 1 1 F
36 3 1 1 F
36 2 1 1 F
36 1 1 1 F
36 0 1 1 F
37 60 1 1 F
37 55 1 1 F
37 53 1 1 F
37 51 1 1 F
37 49 1 1 F
37 48 1 1 F
37 47 1 1 F
37 41 1 1 F
37 40 1 1 F
37 39 1 1 F
37 27 1 1 F
37 25 1 1 F
37 24 1 1 F
37 23 1 1 F
37 22 1 1 F
37 19 1 1 F
37 17 1 1 F
37 15 1 1 F
37 12 1 1 F
37 9 1 1 F
37 8 1 1 F
37 7 1 1 F
37 2 1 1 F
37 1 1 1 F
37 0 1 1 F
38 59 1 1 F
38 56 1 1 F
38 55 1 1 F
38 54 1 1 F
38 53 1 1 F
38 48 1 1 F
38 47 1 1 F
38 46 1 1 F
38 45 1 1 F
38 42 1 1 F
38 40 1 1 F
38 36 1 1 F
38 35 1 1 F
38 34 1 1 F
38 33 1 1 F
38 30 1 1 F
38 27 1 1 F
38 26 1 1 F
38 24 1 1 F
38 23 1 1 F
38 22 1 1 F
38 21 1 1 F
38 18 1 1 F
38 17 1 1 F
38 9 1 1 F
38 6 1 1 F
38 4 1 1 F
38 0 1 1 F
39 56 1 1 F
39 52 1 1 F
39 51 1 1 F
39 47 1 1 F
39 46 1 1 F
39 41 1 1 F
39 39 1 1 F
39 37 1 1 F
39 33 1 1 F
39 32 1 1 F
39 31 1 1 F
39 30 1 1 F
39 28 1 1 F
39 25 1 1 F
39 24 1 1 F
39 20 1 1 F
39 16 1 1 F
39 15 1 1 F
39 14 1 1 F
39 6 1 1 F
40 60 1 1 F
40 59 1 1 F
40 58 1 1 F
40 56 1 1 F
40 54 1 1 F
40 53 1 1 F
40 52 1 1 F
40 51 1 1 F
40 46 1 1 F
40 45 1 1 F
40 43 1 1 F
40 42 1 1 F
40 41 1 1 F
40 40 1 1 F
40 34 1 1 F
40 33 1 1 F
40 31 1 1 F
40 30 1 1 F
40 29 1 1 F
40 28 1 1 F
40 26 1 1 F
40 22 1 1 F
40 21 1 1 F
40 19 1 1 F
40 18 1 1 F
40 17 1 1 F
40 16 1 1 F
40 15 1 1 F
40 10 1 1 F
40 9 1 1 F
40 7 1 1 F
40 5 1 1 F
40 4 1 1 F
40 3 1 1 F
40 2 1 1 F
41 60 1 1 F
41 57 1 1 F
41 56 1 1 F
41 55 1 1 F
41 52 1 1 F
41 51 1 1 F
41 50 1 1 F
41 49 1 1 F
41 48 1 1 F
41 45 1 1 F
41 43 1 1 F
41 36 1 1 F
41 32 1 1 F
41 31 1 1 F
41 28 1 1 F
41 27 1 1 F
41 23 1 1 F
41 22 1 1 F
41 21 1 1 F
41 19 1 1 F
41 18 1 1 F
41 15 1 1 F
41 14 1 1 F
41 8 1 1 F
41 4 1 1 F
41 3 1 1 F
41 0 1 1 F
42 60 1 1 F
42 59 1 1 F
42 58 1 1 F
42 55 1 1 F
42 54 1 1 F
42 53 1 1 F
42 52 1 1 F
42 51 1 1 F
42 50 1 1 F
42 49 1 1 F
42 48 1 1 F
42 46 1 1 F
42 45 1 1 F
42 44 1 1 F
42 40 1 1 F
42 39 1 1 F
42 38 1 1 F
42 37 1 1 F
42 34 1 1 F
42 33 1 1 F
42 32 1 1 F
42 29 1 1 F
42 28 1 1 F
42 27 1 1 F
42 26 1 1 F
42 24 1 1 F
42 22 1 1 F
42 20 1 1 F
42 17 1 1 F
42 15 1 1 F
42 14 1 1 F
42 10 1 1 F
42 9 1 1 F
42 8 1 1 F
42 3 1 1 F
42 2 1 1 F
42 1 1 1 F
42 0 1 1 F
43 59 1 1 F
43 58 1 1 F
43 57 1 1 F
43 56 1 1 F
43 55 1 1 F
43 50 1 1 F
43 47 1 1 F
43 46 1 1 F
43 42 1 1 F
43 39 1 1 F
43 38 1 1 F
43 37 1 1 F
43 36 1 1 F
43 34 1 1 F
43 33 1 1 F
43 30 1 1 F
43 27 1 1 F
43 25 1 1 F
43 24 1 1 F
43 21 1 1 F
43 19 1 1 F
43 18 1 1 F
43 14 1 1 F
43 13 1 1 F
43 12 1 1 F
43 11 1 1 F
43 10 1 1 F
43 6 1 1 F
43 1 1 1 F
43 0 1 1 F
44 58 1 1 F
44 56 1 1 F
44 54 1 1 F
44 50 1 1 F
44 49 1 1 F
44 46 1 1 F
44 45 1 1 F
44 44 1 1 F
44 39 1 1 F
44 38 1 1 F
44 34 1 1 F
44 33 1 1 F
44 32 1 1 F
44 31 1 1 F
44 30 1 1 F
44 27 1 1 F
44 26 1 1 F
44 25 1 1 F
44 22 1 1 F
44 21 1 1 F
44 20 1 1 F
44 19 1 1 F
44 18 1 1 F
44 15 1 1 F
44 13 1 1 F
44 11 1 1 F
44 10 1 1 F
44 9 1 1 F
44 8 1 1 F
44 7 1 1 F
44 5 1 1 F
44 3 1 1 F
44 1 1 1 F
45 60 1 1 F
45 59 1 1 F
45 58 1 1 F
45 53 1 1 F
45 52 1 1 F
45 51 1 1 F
45 50 1 1 F
45 46 1 1 F
45 45 1 1 F
45 44 1 1 F
45 42 1 1 F
45 41 1 1 F
45 40 1 1 F
45 38 1 1 F
45 37 1 1 F
45 35 1 1 F
45 34 1 1 F
45 33 1 1 F
45 32 1 1 F
45 31 1 1 F
45 30 1 1 F
45 29 1 1 F
45 27 1 1 F
45 26 1 1 F
45 25 1 1 F
45 23 1 1 F
45 22 1 1 F
45 19 1 1 F
45 18 1 1 F
45 14 1 1 F
45 12 1 1 F
45 8 1 1 F
45 7 1 1 F
45 5 1 1 F
45 4 1 1 F
45 0 1 1 F
46 59 1 1 F
46 57 1 1 F
46 54 1 1 F
46 52 1 1 F
46 50 1 1 F
46 49 1 1 F
46 48 1 1 F
46 44 1 1 F
46 43 1 1 F
46 42 1 1 F
46 41 1 1 F
46 38 1 1 F
46 33 1 1 F
46 32 1 1 F
46 31 1 1 F
46 29 1 1 F
46 26 1 1 F
46 25 1 1 F
46 24 1 1 F
46 20 1 1 F
46 19 1 1 F
46 18 1 1 F
46 14 1 1 F
46 13 1 1 F
46 10 1 1 F
46 8 1 1 F
46 7 1 1 F
46 6 1 1 F
46 5 1 1 F
46 2 1 1 F
46 1 1 1 F
46 0 1 1 F
47 59 1 1 F
47 58 1 1 F
47 53 1 1 F
47 52 1 1 F
47 50 1 1 F
47 47 1 1 F
47 45 1 1 F
47 44 1 1 F
47 42 1 1 F
47 38 1 1 F
47 37 1 1 F
47 36 1 1 F
47 33 1 1 F
47 32 1 1 F
47 29 1 1 F
47 28 1 1 F
47 27 1 1 F
47 21 1 1 F
47 18 1 1 F
47 16 1 1 F
47 12 1 1 F
47 8 1 1 F
47 7 1 1 F
47 4 1 1 F
47 3 1 1 F
47 2 1 1 F
47 1 1 1 F
47 0 1 1 F
48 59 1 1 F
48 58 1 1 F
48 57 1 1 F
48 54 1 1 F
48 51 1 1 F
48 49 1 1 F
48 48 1 1 F
48 47 1 1 F
48 46 1 1 F
48 43 1 1 F
48 41 1 1 F
48 39 1 1 F
48 36 1 1 F
48 34 1 1 F
48 30 1 1 F
48 26 1 1 F
48 25 1 1 F
48 24 1 1 F
48 22 1 1 F
48 21 1 1 F
48 18 1 1 F
48 17 1 1 F
48 15 1 1 F
48 12 1 1 F
48 10 1 1 F
48 8 1 1 F
48 7 1 1 F
48 6 1 1 F
48 2 1 1 F
48 1 1 1 F
48 0 1 1 F
49 59 1 1 F
49 58 1 1 F
49 57 1 1 F
49 56 1 1 F
49 55 1 1 F
49 53 1 1 F
49 52 1 1 F
49 51 1 1 F
49 45 1 1 F
49 39 1 1 F
49 36 1 1 F
49 35 1 1 F
49 29 1 1 F
49 27 1 1 F
49 24 1 1 F
49 23 1 1 F
49 18 1 1 F
49 16 1 1 F
49 15 1 1 F
49 14 1 1 F
49 9 1 1 F
49 3 1 1 F
50 58 1 1 F
50 57 1 1 F
50 56 1 1 F
50 55 1 1 F
50 54 1 1 F
50 53 1 1 F
50 52 1 1 F
50 50 1 1 F
50 49 1 1 F
50 47 1 1 F
50 46 1 1 F
50 44 1 1 F
50 40 1 1 F
50 35 1 1 F
50 33 1 1 F
50 30 1 1 F
50 29 1 1 F
50 26 1 1 F
50 25 1 1 F
50 24 1 1 F
50 23 1 1 F
50 22 1 1 F
50 13 1 1 F
50 11 1 1 F
50 10 1 1 F
50 7 1 1 F
50 5 1 1 F
50 4 1 1 F
50 2 1 1 F
51 60 1 1 F
51 59 1 1 F
51 58 1 1 F
51 56 1 1 F
51 52 1 1 F
51 48 1 1 F
51 47 1 1 F
51 45 1 1 F
51 44 1 1 F
51 43 1 1 F
51 42 1 1 F
51 39 1 1 F
51 38 1 1 F
51 36 1 1 F
51 34 1 1 F
51 33 1 1 F
51 32 1 1 F
51 28 1 1 F
51 27 1 1 F
51 24 1 1 F
51 21 1 1 F
51 20 1 1 F
51 19 1 1 F
51 18 1 1 F
51 17 1 1 F
51 15 1 1 F
51 12 1 1 F
51 11 1 1 F
51 10 1 1 F
51 9 1 1 F
51 2 1 1 F
51 1 1 1 F
52 60 1 1 F
52 59 1 1 F
52 58 1 1 F
52 57 1 1 F
52 54 1 1 F
52 52 1 1 F
52 50 1 1 F
52 43 1 1 F
52 42 1 1 F
52 41 1 1 F
52 39 1 1 F
52 38 1 1 F
52 37 1 1 F
52 33 1 1 F
52 32 1 1 F
52 31 1 1 F
52 30 1 1 F
52 29 1 1 F
52 28 1 1 F
52 27 1 1 F
52 25 1 1 F
52 23 1 1 F
52 22 1 1 F
52 21 1 1 F
52 19 1 1 F
52 17 1 1 F
52 15 1 1 F
52 14 1 1 F
52 10 1 1 F
52 9 1 1 F
52 8 1 1 F
52 7 1 1 F
52 6 1 1 F
52 5 1 1 F
52 4 1 1 F
52 3 1 1 F
52 0 1 1 F
53 52 1 1 F
53 51 1 1 F
53 50 1 1 F
53 49 1 1 F
53 43 1 1 F
53 41 1 1 F
53 39 1 1 F
53 38 1 1 F
53 36 1 1 F
53 33 1 1 F
53 32 1 1 F
53 28 1 1 F
53 26 1 1 F
53 24 1 1 F
53 20 1 1 F
53 18 1 1 F
53 17 1 1 F
53 15 1 1 F
53 13 1 1 F
53 12 1 1 F
53 11 1 1 F
53 8 1 1 F
53 4 1 1 F
53 3 1 1 F
53 2 1 1 F
53 1 1 1 F
53 0 1 1 F
54 60 1 1 F
54 59 1 1 F
54 58 1 1 F
54 57 1 1 F
54 56 1 1 F
54 55 1 1 F
54 54 1 1 F
54 51 1 1 F
54 48 1 1 F
54 46 1 1 F
54 45 1 1 F
54 44 1 1 F
54 39 1 1 F
54 33 1 1 F
54 32 1 1 F
54 30 1 1 F
54 28 1 1 F
54 27 1 1 F
54 25 1 1 F
54 23 1 1 F
54 20 1 1 F
54 18 1 1 F
54 17 1 1 F
54 15 1 1 F
54 11 1 1 F
54 9 1 1 F
54 8 1 1 F
54 6 1 1 F
54 4 1 1 F
54 2 1 1 F
55 60 1 1 F
55 54 1 1 F
55 50 1 1 F
55 49 1 1 F
55 47 1 1 F
55 46 1 1 F
55 44 1 1 F
55 43 1 1 F
55 42 1 1 F
55 41 1 1 F
55 38 1 1 F
55 36 1 1 F
55 34 1 1 F
55 33 1 1 F
55 32 1 1 F
55 28 1 1 F
55 27 1 1 F
55 22 1 1 F
55 21 1 1 F
55 11 1 1 F
55 8 1 1 F
55 4 1 1 F
55 2 1 1 F
55 0 1 1 F
56 60 1 1 F
56 58 1 1 F
56 57 1 1 F
56 56 1 1 F
56 54 1 1 F
56 52 1 1 F
56 51 1 1 F
56 50 1 1 F
56 49 1 1 F
56 47 1 1 F
56 46 1 1 F
56 45 1 1 F
56 44 1 1 F
56 43 1 1 F
56 42 1 1 F
56 34 1 1 F
56 33 1 1 F
56 32 1 1 F
56 31 1 1 F
56 30 1 1 F
56 29 1 1 F
56 28 1 1 F
56 26 1 1 F
56 24 1 1 F
56 23 1 1 F
56 20 1 1 F
56 17 1 1 F
56 16 1 1 F
56 13 1 1 F
56 12 1 1 F
56 11 1 1 F
56 8 1 1 F
56 7 1 1 F
56 6 1 1 F
56 5 1 1 F
56 4 1 1 F
56 3 1 1 F
56 2 1 1 F
57 60 1 1 F
57 58 1 1 F
57 57 1 1 F
57 56 1 1 F
57 54 1 1 F
57 52 1 1 F
57 49 1 1 F
57 48 1 1 F
57 46 1 1 F
57 43 1 1 F
57 41 1 1 F
57 38 1 1 F
57 37 1 1 F
57 36 1 1 F
57 34 1 1 F
57 31 1 1 F
57 30 1 1 F
57 29 1 1 F
57 27 1 1 F
57 26 1 1 F
57 25 1 1 F
57 24 1 1 F
57 23 1 1 F
57 22 1 1 F
57 19 1 1 F
57 17 1 1 F
57 15 1 1 F
57 14 1 1 F
57 13 1 1 F
57 12 1 1 F
57 11 1 1 F
57 5 1 1 F
57 0 1 1 F
58 60 1 1 F
58 58 1 1 F
58 57 1 1 F
58 56 1 1 F
58 54 1 1 F
58 52 1 1 F
58 50 1 1 F
58 49 1 1 F
58 48 1 1 F
58 47 1 1 F
58 46 1 1 F
58 44 1 1 F
58 37 1 1 F
58 35 1 1 F
58 34 1 1 F
58 32 1 1 F
58 31 1 1 F
58 30 1 1 F
58 27 1 1 F
58 25 1 1 F
58 24 1 1 F
58 19 1 1 F
58 15 1 1 F
58 13 1 1 F
58 12 1 1 F
58 11 1 1 F
58 10 1 1 F
58 8 1 1 F
58 4 1 1 F
58 1 1 1 F
58 0 1 1 F
59 60 1 1 F
59 54 1 1 F
59 47 1 1 F
59 46 1 1 F
59 45 1 1 F
59 44 1 1 F
59 42 1 1 F
59 41 1 1 F
59 40 1 1 F
59 37 1 1 F
59 35 1 1 F
59 34 1 1 F
59 33 1 1 F
59 31 1 1 F
59 23 1 1 F
59 22 1 1 F
59 15 1 1 F
59 14 1 1 F
59 11 1 1 F
59 10 1 1 F
59 9 1 1 F
59 6 1 1 F
59 5 1 1 F
59 2 1 1 F
59 0 1 1 F
60 60 1 1 F
60 59 1 1 F
60 58 1 1 F
60 57 1 1 F
60 56 1 1 F
60 55 1 1 F
60 54 1 1 F
60 52 1 1 F
60 51 1 1 F
60 49 1 1 F
60 48 1 1 F
60 44 1 1 F
60 43 1 1 F
60 42 1 1 F
60 40 1 1 F
60 33 1 1 F
60 32 1 1 F
60 31 1 1 F
60 30 1 1 F
60 29 1 1 F
60 28 1 1 F
60 25 1 1 F
60 24 1 1 F
60 23 1 1 F
60 21 1 1 F
60 20 1 1 F
60 19 1 1 F
60 18 1 1 F
60 13 1 1 F
60 11 1 1 F
60 9 1 1 F
60 8 1 1 F
60 7 1 1 F
60 6 1 1 F
60 5 1 1 F
60 3 1 1 F
60 0 1 1 F
%%EOF
0

